

INSERT INTO voyages (id,type_id,societe_id,ville_depart,ville_arrive,depart_time,arrive_time,nextday,tarif,classe) VALUES
(1,2,3,3,1,'00:30:00','04:29:00','false',100 ,3 ),
(2,2,3,3,1,'04:30:00','07:59:00','false',100 ,3 ),
(3,2,3,3,1,'08:30:00','11:59:00','false',100 ,3 ),
(4,2,3,3,1,'10:30:00','14:29:00','false',100 ,3),
(5,2,3,3,1,'12:30:00','16:29:00','false',100 ,3 ),
(6,2,3,3,1,'14:30:00','18:29:00','false',100 ,3 ),
(7,2,3,3,1,'15:00:00','18:59:00','false',100 ,3 ),
(8,2,3,3,1,'16:30:00','20:29:00','false',100 ,3 ),
(9,2,3,3,1,'17:00:00','20:00:00','false',150 ,3 ),
(10,2,3,3,1,'18:30:00','22:29:00','false',100 ,3 ),
(11,2,3,3,1,'20:30:00','00:31:00','true',100 ,3 ),
(12,2,3,3,1,'22:30:00','02:29:00','true',100 ,3 ),
(13,2,3,3,1,'22:30:00','02:29:00','true',100 ,3 );


INSERT INTO voyages (id,type_id,societe_id,ville_depart,ville_arrive,depart_time,arrive_time,nextday,tarif,classe) VALUES
(14,2,2,3,1,'03:00:00','06:30:00','false',105 ,3 ),
(15,2,2,3,1,'04:00:00','07:15:00','false',105 ,3 ),
(16,2,2,3,1,'06:00:00','08:15:00','false',105 ,3 ),
(17,2,2,3,1,'02:45:00','06:00:00','false',105 ,3 ),
(18,2,2,3,1,'08:30:00','11:55:00','false',105 ,3 ),
(19,2,2,3,1,'11:00:00','14:15:00','false',105 ,3 ),
(20,2,2,3,1,'12:45:00','15:45:00','false',105 ,3 ),
(21,2,2,3,1,'14:30:00','17:15:00','false',105 ,3 ),
(22,2,2,3,1,'16:00:00','19:15:00','false',105 ,3 ),
(23,2,2,3,1,'16:15:00','19:15:00','false',105 ,3 ),
(24,2,2,3,1,'17:00:00','20:30:00','false',105 ,3 ),
(25,2,2,3,1,'20:00:00','23:15:00','false',105 ,3 ),
(26,2,2,3,1,'21:30:00','00:30:00','true',105 ,3 ),
(27,2,2,3,1,'23:45:00','03:15:00','true',105 ,3 ),
(28,2,2,3,1,'01:15:00','05:40:00','false',105 ,3 );




INSERT INTO voyages (id,type_id,societe_id,ville_depart,ville_arrive,depart_time,arrive_time,nextday,tarif,classe) VALUES
(30,1,1,3,2,'04:55:00','09:15:00','false',120 ,2 ),
(31,1,1,3,2,'06:55:00','11:15:00','false',120 ,2 ),
(32,1,1,3,2,'08:55:00','13:15:00','false',120 ,2 ),
(33,1,1,3,2,'10:55:00','15:15:00','false',120 ,2 ),
(34,1,1,3,2,'12:55:00','17:15:00','false',120 ,2 ),
(35,1,1,3,2,'14:55:00','19:15:00','false',120 ,2 ),
(36,1,1,3,2,'16:55:00','21:15:00','false',120 ,2 ),
(37,1,1,3,2,'18:55:00','23:15:00','false',120 ,2 ),
(38,1,1,3,2,'20:55:00','01:53:00','true',120 , 2);

INSERT INTO voyages (id,type_id,societe_id,ville_depart,ville_arrive,depart_time,arrive_time,nextday,tarif,classe) VALUES
(48,2,2,3,2,'01:30:00','05:15:00','false',150 ,3 ),
(49,2,2,3,2,'02:30:00','07:15:00','false',150 ,3 ),
(50,2,2,3,2,'03:45:00','08:30:00','false',150 ,3 ),
(51,2,2,3,2,'05:45:00','11:00:00','false',150 ,3 ),
(52,2,2,3,2,'09:30:00','14:45:00','false',150 ,3 ),
(53,2,2,3,2,'13:40:00','19:15:00','false',150 ,3 );


INSERT INTO voyages (id,type_id,societe_id,ville_depart,ville_arrive,depart_time,arrive_time,nextday,tarif,classe) VALUES
(54,1,1,3,4,'04:55:00','08:10:00','false',90 ,2 ),
(55,1,1,3,4,'06:55:00','10:10:00','false',90 ,2 ),
(56,1,1,3,4,'08:55:00','12:10:00','false',90 ,2 ),
(57,1,1,3,4,'10:55:00','14:10:00','false',90 ,2 ),
(58,1,1,3,4,'12:55:00','16:10:00','false',90 ,2 ),
(59,1,1,3,4,'14:55:00','18:10:00','false',90 ,2 ),
(60,1,1,3,4,'16:55:00','20:10:00','false',90 ,2 ),
(61,1,1,3,4,'18:55:00','22:10:00','false',90 ,2 ),
(62,1,1,3,4,'20:55:00','00:10:00','true',90 , 2);




INSERT INTO voyages (id,type_id,societe_id,ville_depart,ville_arrive,depart_time,arrive_time,nextday,tarif,classe) VALUES
(72,2,2,3,4,'02:30:00','05:45:00','false',90 ,3 ),
(73,2,2,3,4,'03:05:00','06:15:00','false',90 ,3 ),
(74,2,2,3,4,'03:45:00','07:05:00','false',90 ,3 ),
(75,2,2,3,4,'05:45:00','09:10:00','false',90 ,3 ),
(76,2,2,3,4,'09:30:00','13:15:00','false',90 ,3 ),
(77,2,2,3,4,'11:15:00','15:30:00','false',90 ,3 ),
(78,2,2,3,4,'12:35:00','16:30:00','false',90 ,3 ),
(79,2,2,3,4,'13:40:00','17:35:00','false',90 ,3 ),
(80,2,2,3,4,'21:45:00','01:00:00','true',90 ,3 ),
(81,2,2,3,4,'13:30:00','18:10:00','false',90 ,3 ),
(82,2,2,3,4,'16:15:00','19:30:00','false',90 ,3 );


INSERT INTO voyages (id,type_id,societe_id,ville_depart,ville_arrive,depart_time,arrive_time,nextday,tarif,classe) VALUES
(83,1,1,3,5,'04:55:00','14:30:00','false',205 ,2 ),
(84,1,1,3,5,'06:55:00','16:30:00','false',205 ,2 ),
(85,1,1,3,5,'08:55:00','18:30:00','false',205 ,2 ),
(86,1,1,3,5,'10:55:00','20:20:00','false',205 ,2 ),
(87,1,1,3,5,'12:55:00','22:25:00','false',205 ,2 ),
(88,1,1,3,5,'20:55:00','07:00:00','true',205 , 2);


 

INSERT INTO voyages (id,type_id,societe_id,ville_depart,ville_arrive,depart_time,arrive_time,nextday,tarif,classe) VALUES
(95,2,2,3,5,'02:30:00','17:00:00','false',235 ,3 );
 
 

INSERT INTO voyages (id,type_id,societe_id,ville_depart,ville_arrive,depart_time,arrive_time,nextday,tarif,classe) VALUES
(96,1,1,3,6,'04:55:00','12:10:00','false',195 , 2),
(97,1,1,3,6,'06:55:00','14:10:00','false',195 , 2),
(98,1,1,3,6,'08:55:00','16:10:00','false',195 , 2),
(99,1,1,3,6,'10:55:00','18:10:00','false',195 , 2),
(100,1,1,3,6,'12:55:00','20:10:00','false',195, 2),
(101,1,1,3,6,'14:55:00','22:10:00','false',195, 2),
(102,1,1,3,6,'16:55:00','00:10:00','true',195 , 2),
(103,1,1,3,6,'18:55:00','02:10:00','true',195 , 2);

 

INSERT INTO voyages (id,type_id,societe_id,ville_depart,ville_arrive,depart_time,arrive_time,nextday,tarif,classe) VALUES
(112,2,2,3,6,'01:30:00','09:00:00','false',175 ,3 ),
(113,2,2,3,6,'09:30:00','18:30:00','false',175 ,3 ),
(114,2,2,3,6,'07:00:00','16:10:00','false',175 ,3 ),
(115,2,2,3,6,'15:00:00','23:00:00','false',175 ,3 ),
(116,2,2,3,6,'23:15:00','07:00:00','true',175 ,3 );


INSERT INTO voyages (id,type_id,societe_id,ville_depart,ville_arrive,depart_time,arrive_time,nextday,tarif,classe) VALUES
(117,1,1,3,7,'04:55:00','11:32:00','false',174 ,2 ),
(118,1,1,3,7,'06:55:00','13:32:00','false',174 ,2 ),
(119,1,1,3,7,'08:55:00','15:32:00','false',174 ,2 ),
(120,1,1,3,7,'10:55:00','17:32:00','false',174 ,2 ),
(121,1,1,3,7,'12:55:00','19:32:00','false',174 ,2 ),
(122,1,1,3,7,'14:55:00','21:31:00','false',174 ,2 ),
(123,1,1,3,7,'16:55:00','23:29:00','false',174 ,2 ),
(124,1,1,3,7,'18:55:00','01:29:00','true',174 , 2);




INSERT INTO voyages (id,type_id,societe_id,ville_depart,ville_arrive,depart_time,arrive_time,nextday,tarif,classe) VALUES
(133,2,2,3,7,'01:30:00','07:45:00','false',165 ,3 ),
(134,2,2,3,7,'09:30:00','17:25:00','false',165 ,3 );



INSERT INTO voyages (id,type_id,societe_id,ville_depart,ville_arrive,depart_time,arrive_time,nextday,tarif,classe) VALUES
(135,2,2,3,8,'07:00:00','14:55:00','false',155 ,3 ),
(136,2,2,3,8,'23:15:00','06:30:00','true',155 ,3 );



INSERT INTO voyages (id,type_id,societe_id,ville_depart,ville_arrive,depart_time,arrive_time,nextday,tarif,classe) VALUES
(137,2,3,3,9,'10:30:00','13:59:00','false',60 ,3 ),
(138,2,3,3,9,'12:30:00','16:29:00','false',60 ,3 ),
(139,2,3,3,9,'23:00:00','02:29:00','true',60 ,3 );


INSERT INTO voyages (id,type_id,societe_id,ville_depart,ville_arrive,depart_time,arrive_time,nextday,tarif,classe) VALUES
(140,2,2,3,9,'02:30:00','05:30:00','false',70 ,3 ),
(141,2,2,3,9,'07:00:00','10:30:00','false',65 ,3 ),
(142,2,2,3,9,'23:15:00','02:25:00','true',65 ,3 );


INSERT INTO voyages (id,type_id,societe_id,ville_depart,ville_arrive,depart_time,arrive_time,nextday,tarif,classe) VALUES
(143,2,3,3,10,'14:30:00','10:59:00','true',360 ,3 ),
(144,2,3,3,10,'15:30:00','11:29:00','true',360 ,3 ),
(145,2,3,3,10,'22:30:00','17:59:00','true',360 ,3 );



INSERT INTO voyages (id,type_id,societe_id,ville_depart,ville_arrive,depart_time,arrive_time,nextday,tarif,classe) VALUES
(146,2,2,3,10,'17:00:00','10:00:00','true',390,3 ),
(147,2,2,3,10,'20:00:00','13:45:00','true',390,3 );



INSERT INTO voyages (id,type_id,societe_id,ville_depart,ville_arrive,depart_time,arrive_time,nextday,tarif,classe) VALUES
(148,2,2,3,11,'17:00:00','15:30:00','true',480,3 );



INSERT INTO voyages (id,type_id,societe_id,ville_depart,ville_arrive,depart_time,arrive_time,nextday,tarif,classe) VALUES
(149,2,3,3,12,'04:55:00','09:50:00','false',125 ,3 ),
(150,2,3,3,12,'06:55:00','11:50:00','false',125 ,3 ),
(151,2,3,3,12,'08:55:00','13:50:00','false',125 ,3 ),
(152,2,3,3,12,'10:55:00','15:50:00','false',125 ,3 ),
(153,2,3,3,12,'12:55:00','18:50:00','false',125 ,3 ),
(154,2,3,3,12,'14:55:00','20:50:00','false',125 ,3 );



INSERT INTO voyages (id,type_id,societe_id,ville_depart,ville_arrive,depart_time,arrive_time,nextday,tarif,classe) VALUES
(155,2,2,3,13,'07:30:00','17:30:00','false',160,3 );



INSERT INTO voyages (id,type_id,societe_id,ville_depart,ville_arrive,depart_time,arrive_time,nextday,tarif,classe) VALUES
(156,2,2,3,14,'08:30:00','11:30:00','false',70,3 ),
(157,2,2,3,14,'12:30:00','15:30:00','false',70,3 );


INSERT INTO voyages (id,type_id,societe_id,ville_depart,ville_arrive,depart_time,arrive_time,nextday,tarif,classe) VALUES
(158,2,3,3,14,'08:30:00','11:30:00','false',70 ,3 ),
(159,2,3,3,14,'09:00:00','11:59:00','false',100 ,3 ),
(160,2,3,3,14,'10:30:00','13:45:00','false',70 ,3 ),
(161,2,3,3,14,'14:30:00','17:45:00','false',70 ,3 ),
(162,2,3,3,14,'17:00:00','19:59:00','false',70 ,3 ),
(163,2,3,3,14,'19:00:00','21:59:00','false',70 ,3 );


INSERT INTO voyages (id,type_id,societe_id,ville_depart,ville_arrive,depart_time,arrive_time,nextday,tarif,classe) VALUES
(164,1,1,3,15,'04:55:00','09:46:00','false',135 ,2 ),
(165,1,1,3,15,'06:55:00','11:46:00','false',135 ,2 ),
(166,1,1,3,15,'08:55:00','13:46:00','false',135 ,2 ),
(167,1,1,3,15,'10:55:00','15:46:00','false',135 ,2 ),
(168,1,1,3,15,'12:55:00','17:46:00','false',135 ,2 ),
(169,1,1,3,15,'14:55:00','19:46:00','false',135 ,2 ),
(170,1,1,3,15,'16:55:00','21:46:00','false',135 ,2 ),
(171,1,1,3,15,'18:55:00','23:49:00','false',135 ,2 ),
(172,1,1,3,15,'20:55:00','02:29:00','true', 135 ,2 );





INSERT INTO voyages (id,type_id,societe_id,ville_depart,ville_arrive,depart_time,arrive_time,nextday,tarif,classe) VALUES
(182,2,2,3,16,'07:00:00','12:50:00','false',125,3 ),
(183,2,2,3,16,'23:15:00','04:45:00','true',125,3 );



INSERT INTO voyages (id,type_id,societe_id,ville_depart,ville_arrive,depart_time,arrive_time,nextday,tarif,classe) VALUES
(184,2,2,3,18,'04:00:00','17:00:00','false',350,3 ),
(185,2,2,3,18,'14:30:00','05:15:00','true',350,3 ),
(186,2,2,3,18,'17:00:00','07:30:00','true',350,3 ),
(187,2,2,3,18,'20:00:00','10:00:00','true',350,3 ),
(188,2,2,3,18,'21:30:00','11:30:00','true',350,3 );


INSERT INTO voyages (id,type_id,societe_id,ville_depart,ville_arrive,depart_time,arrive_time,nextday,tarif,classe) VALUES
(189,2,3,3,18,'14:30:00','08:29:00','true',335 ,3 ),
(190,2,3,3,18,'15:30:00','08:59:00','true',335 ,3 ),
(191,2,3,3,18,'17:00:00','08:30:00','true',335 ,3 ),
(192,2,3,3,18,'19:30:00','10:29:00','true',335 ,3 ),
(193,2,3,3,18,'22:30:00','14:29:00','true',335 ,3 );


INSERT INTO voyages (id,type_id,societe_id,ville_depart,ville_arrive,depart_time,arrive_time,nextday,tarif,classe) VALUES
(194,1,1,3,19,'08:55:00','23:12:00','false',248 ,2 ),
(195,1,1,3,19,'14:55:00','05:57:00','true',248 , 2),
(196,1,1,3,19,'18:55:00','09:32:00','true',248 , 2);




INSERT INTO voyages (id,type_id,societe_id,ville_depart,ville_arrive,depart_time,arrive_time,nextday,tarif,classe) VALUES
(200,1,1,3,20,'06:55:00','21:00:00','false',280 ,2 ),
(201,1,1,3,20,'18:55:00','08:10:00','true',280 ,2 );




INSERT INTO voyages (id,type_id,societe_id,ville_depart,ville_arrive,depart_time,arrive_time,nextday,tarif,classe) VALUES
(204,2,3,3,23,'15:00:00','05:30:00','true',255 ,3 );

INSERT INTO voyages (id,type_id,societe_id,ville_depart,ville_arrive,depart_time,arrive_time,nextday,tarif,classe) VALUES
(205,2,2,3,23,'16:30:00','06:30:00','true',250,3 );


INSERT INTO voyages (id,type_id,societe_id,ville_depart,ville_arrive,depart_time,arrive_time,nextday,tarif,classe) VALUES
(206,1,1,3,24,'06:55:00','17:44:00','false',226 ,2 ),
(207,1,1,3,24,'12:55:00','23:45:00','false',226 ,2 ),
(208,1,1,3,24,'20:55:00','08:44:00','true',226 , 2);


INSERT INTO voyages (id,type_id,societe_id,ville_depart,ville_arrive,depart_time,arrive_time,nextday,tarif,classe) VALUES
(212,2,3,1,2,'00:30:00','09:15:00','false',220 ,2 ),
(213,2,3,1,2,'02:00:00','11:15:00','false',220 ,2 ),
(214,2,3,1,2,'02:30:00','13:15:00','false',220 ,2 ),
(215,2,3,1,2,'05:00:00','13:15:00','false',220 ,2 ),
(216,2,3,1,2,'06:00:00','15:15:00','false',220 ,2 ),
(217,2,3,1,2,'07:00:00','15:15:00','false',220 ,2 ),
(218,2,3,1,2,'09:00:00','17:15:00','false',220 ,2 ),
(219,2,3,1,2,'11:00:00','19:15:00','false',220 ,2 ),
(220,2,3,1,2,'11:30:00','23:15:00','false',220 ,2 ),
(221,2,3,1,2,'13:00:00','21:15:00','false',220 ,2 ),
(222,2,3,1,2,'15:00:00','23:15:00','false',220 ,2 ),
(223,2,3,1,2,'17:00:00','01:53:00','true',220 , 2);


INSERT INTO voyages (id,type_id,societe_id,ville_depart,ville_arrive,depart_time,arrive_time,nextday,tarif,classe) VALUES
(224,2,2,1,2,'00:30:00','08:30:00','false',250 ,3 ),
(225,2,2,1,2,'01:45:00','11:00:00','false',250 ,3 ),
(226,2,2,1,2,'06:00:00','14:45:00','false',250 ,3 ),
(227,2,2,1,2,'09:45:00','19:15:00','false',250 ,3 ),
(228,2,2,1,2,'22:30:00','07:15:00','true',250 ,3 ); 


INSERT INTO voyages (id,type_id,societe_id,ville_depart,ville_arrive,depart_time,arrive_time,nextday,tarif,classe) VALUES
(229,2,3,1,3,'00:30:00','04:30:00','false',100 ,3 ),
(230,2,3,1,3,'02:00:00','06:30:00','false',100 ,3 ),
(231,2,3,1,3,'02:30:00','08:29:00','false',100 ,3 ),
(232,2,3,1,3,'05:00:00','08:45:00','false',100 ,3 ),
(233,2,3,1,3,'06:00:00','09:59:00','false',100 ,3 ),
(234,2,3,1,3,'07:00:00','10:30:00','false',100 ,3 ),
(235,2,3,1,3,'08:30:00','12:29:00','false',100 ,3 ),
(236,2,3,1,3,'09:00:00','12:45:00','false',100 ,3 ),
(237,2,3,1,3,'11:00:00','14:45:00','false',100 ,3 ),
(238,2,3,1,3,'11:30:00','15:00:00','false',100 ,3 ),
(239,2,3,1,3,'13:00:00','16:45:00','false',100 ,3 ),
(240,2,3,1,3,'15:00:00','18:45:00','false',100 ,3 ),
(241,2,3,1,3,'17:00:00','20:45:00','false',100 ,3 ),
(242,2,3,1,3,'19:30:00','22:59:00','false',100 ,3 );


INSERT INTO voyages (id,type_id,societe_id,ville_depart,ville_arrive,depart_time,arrive_time,nextday,tarif,classe) VALUES
(243,2,2,1,3,'00:30:00','03:30:00','false',105 ,3 ),
(244,2,2,1,3,'01:45:00','05:30:00','false',105 ,3 ),
(245,2,2,1,3,'05:45:00','09:30:00','false',105 ,3 ),
(246,2,2,1,3,'06:00:00','09:15:00','false',105 ,3 ),
(247,2,2,1,3,'08:00:00','11:00:00','false',105 ,3 ),
(248,2,2,1,3,'09:00:00','12:00:00','false',105 ,3 ),
(249,2,2,1,3,'09:45:00','13:15:00','false',105 ,3 ),
(250,2,2,1,3,'18:30:00','21:40:00','false',105 ,3 ),
(251,2,2,1,3,'13:00:00','16:30:00','false',105 ,3 ),
(252,2,2,1,3,'15:30:00','19:15:00','false',105 ,3 ),
(253,2,2,1,3,'16:00:00','20:00:00','false',105 ,3 ),
(254,2,2,1,3,'22:30:00','02:00:00','true',105 ,3 );



INSERT INTO voyages (id,type_id,societe_id,ville_depart,ville_arrive,depart_time,arrive_time,nextday,tarif,classe) VALUES
(255,2,3,1,4,'00:30:00','08:10:00','false',190 ,2 ),
(256,2,3,1,4,'02:00:00','10:10:00','false',190 ,2 ),
(257,2,3,1,4,'02:30:00','12:10:00','false',190 ,2 ),
(258,2,3,1,4,'05:00:00','12:10:00','false',190 ,2 ),
(259,2,3,1,4,'06:00:00','14:10:00','false',190 ,2 ),
(260,2,3,1,4,'07:00:00','14:10:00','false',190 ,2 ),
(261,2,3,1,4,'08:30:00','21:10:00','false',190 ,2 ),
(262,2,3,1,4,'09:00:00','16:10:00','false',190 ,2 ),
(263,2,3,1,4,'11:00:00','18:10:00','false',190 ,2 ),
(264,2,3,1,4,'11:30:00','22:10:00','false',190 ,2 ),
(265,2,3,1,4,'13:00:00','20:10:00','false',190 ,2 ),
(266,2,3,1,4,'15:00:00','20:10:00','false',190 ,2 ),
(267,2,3,1,4,'17:00:00','00:10:00','true',190 , 2);


INSERT INTO voyages (id,type_id,societe_id,ville_depart,ville_arrive,depart_time,arrive_time,nextday,tarif,classe) VALUES
(268,2,2,1,4,'00:30:00','07:05:00','false',205 ,3 ),
(269,2,2,1,4,'01:45:00','09:10:00','false',205 ,3 ),
(270,2,2,1,4,'08:00:00','15:30:00','false',205 ,3 ),
(271,2,2,1,4,'09:00:00','16:30:00','false',205 ,3 ),
(272,2,2,1,4,'09:45:00','17:35:00','false',205 ,3 ),
(273,2,2,1,4,'18:30:00','01:00:00','false',205 ,3 ),
(274,2,2,1,4,'11:00:00','17:30:00','false',260 ,3 ),
(275,2,2,1,4,'13:00:00','20:45:00','false',205 ,3 ),
(276,2,2,1,4,'15:30:00','23:00:00','false',205 ,3 ),
(277,2,2,1,4,'22:30:00','05:45:00','true',205 ,3 ),
(278,2,2,1,4,'23:59:00','06:00:00','true',260 ,3 );



INSERT INTO voyages (id,type_id,societe_id,ville_depart,ville_arrive,depart_time,arrive_time,nextday,tarif,classe) VALUES
(279,2,3,1,5,'00:30:00','14:30:00','false',305 ,2 ),
(280,2,3,1,5,'02:00:00','16:30:00','false',305 ,2 ),
(281,2,3,1,5,'02:30:00','18:30:00','false',305 ,2 ),
(282,2,3,1,5,'05:00:00','18:30:00','false',305 ,2 ),
(283,2,3,1,5,'06:00:00','20:20:00','false',305 ,2 ),
(284,2,3,1,5,'07:00:00','20:20:00','false',305 ,2 ),
(285,2,3,1,5,'09:00:00','22:25:00','false',305 ,2 ),
(286,2,3,1,5,'17:00:00','07:00:00','true',305 , 2);


INSERT INTO voyages (id,type_id,societe_id,ville_depart,ville_arrive,depart_time,arrive_time,nextday,tarif,classe) VALUES
(287,2,2,1,5,'22:30:00','17:00:00','true',335 ,3 ); 



INSERT INTO voyages (id,type_id,societe_id,ville_depart,ville_arrive,depart_time,arrive_time,nextday,tarif,classe) VALUES
(288,2,3,1,6,'00:30:00','12:10:00','false',295 ,3 ),
(289,2,3,1,6,'02:00:00','14:10:00','false',295 ,3 ),
(290,2,3,1,6,'02:30:00','16:10:00','false',295 ,3 ),
(291,2,3,1,6,'05:00:00','16:10:00','false',295 ,3 ),
(292,2,3,1,6,'06:00:00','18:10:00','false',295 ,3 ),
(293,2,3,1,6,'07:00:00','18:10:00','false',295 ,3 ),
(294,2,3,1,6,'09:00:00','20:10:00','false',295 ,3 ),
(295,2,3,1,6,'11:00:00','22:10:00','false',295 ,3 ),
(296,2,3,1,6,'11:30:00','22:10:00','false',295 ,3 ),
(297,2,3,1,6,'13:00:00','00:10:00','true',295 ,3 ),
(298,2,3,1,6,'15:00:00','02:10:00','true',295 ,3 );



INSERT INTO voyages (id,type_id,societe_id,ville_depart,ville_arrive,depart_time,arrive_time,nextday,tarif,classe) VALUES
(299,2,2,1,6,'06:00:00','18:30:00','false',275 ,3 ),
(300,2,2,1,6,'22:30:00','11:00:00','true',260 ,3 );


INSERT INTO voyages (id,type_id,societe_id,ville_depart,ville_arrive,depart_time,arrive_time,nextday,tarif,classe) VALUES
(301,2,3,1,7,'00:30:00','11:32:00','false',274 ,2 ),
(302,2,3,1,7,'02:00:00','13:32:00','false',274 ,2 ),
(303,2,3,1,7,'02:30:00','15:32:00','false',274 ,2 ),
(304,2,3,1,7,'05:00:00','15:32:00','false',274 ,2 ),
(305,2,3,1,7,'06:00:00','17:32:00','false',274 ,2 ),
(306,2,3,1,7,'07:00:00','17:32:00','false',274 ,2 ),
(307,2,3,1,7,'09:00:00','19:32:00','false',274 ,2 ),
(308,2,3,1,7,'11:00:00','21:32:00','false',274 ,2 ),
(309,2,3,1,7,'11:30:00','01:29:00','true',274 , 2),
(310,2,3,1,7,'13:00:00','23:29:00','false',274 ,2 ),
(311,2,3,1,7,'15:00:00','01:29:00','true',274 , 2),
(312,2,3,1,7,'19:30:00','06:59:00','true',262 ,3 );


INSERT INTO voyages (id,type_id,societe_id,ville_depart,ville_arrive,depart_time,arrive_time,nextday,tarif,classe) VALUES
(313,2,2,1,7,'06:00:00','17:25:00','false',265 ,3 );



INSERT INTO voyages (id,type_id,societe_id,ville_depart,ville_arrive,depart_time,arrive_time,nextday,tarif,classe) VALUES
(314,2,2,1,8,'22:30:00','09:50:00','true',250 ,3 );


INSERT INTO voyages (id,type_id,societe_id,ville_depart,ville_arrive,depart_time,arrive_time,nextday,tarif,classe) VALUES
(315,2,3,1,9,'08:30:00','16:29:00','false',160 ,3 ),
(316,2,3,1,9,'19:30:00','02:29:00','false',160 ,3 );


INSERT INTO voyages (id,type_id,societe_id,ville_depart,ville_arrive,depart_time,arrive_time,nextday,tarif,classe) VALUES
(317,2,2,1,9,'22:30:00','05:50:00','true',165 ,3 ),
(318,2,2,1,9,'23:00:00','05:30:00','true',170 ,3 );



INSERT INTO voyages (id,type_id,societe_id,ville_depart,ville_arrive,depart_time,arrive_time,nextday,tarif,classe) VALUES
(319,2,3,1,10,'10:00:00','22:59:00','false',295 ,3 ),
(320,2,3,1,10,'19:00:00','10:29:00','true',295 ,3 ),
(39,2,3,1,10,'21:00:00','11:59:00','true',295 ,3 );


INSERT INTO voyages (id,type_id,societe_id,ville_depart,ville_arrive,depart_time,arrive_time,nextday,tarif,classe) VALUES
(321,2,2,1,10,'10:00:00','00:25:00','true',300 ,3 ),
(322,2,2,1,10,'20:45:00','10:00:00','true',300 ,3 ),
(323,2,2,1,10,'21:45:00','11:15:00','true',300 ,3 ),
(324,2,2,1,10,'22:15:00','12:15:00','true',285 ,3 );



INSERT INTO voyages (id,type_id,societe_id,ville_depart,ville_arrive,depart_time,arrive_time,nextday,tarif,classe) VALUES
(325,2,2,1,11,'10:00:00','05:15:00','true',390 ,3 ),
(326,2,2,1,11,'20:45:00','15:30:00','true',390 ,3 ),
(327,2,2,1,11,'21:45:00','17:00:00','true',390 ,3 ),
(328,2,2,1,11,'22:15:00','17:30:00','true',370 ,3 );


INSERT INTO voyages (id,type_id,societe_id,ville_depart,ville_arrive,depart_time,arrive_time,nextday,tarif,classe) VALUES
(329,2,2,1,12,'12:30:00','20:20:00','false',170 ,3 ),
(330,2,2,1,12,'08:00:00','16:45:00','false',170 ,3 );


INSERT INTO voyages (id,type_id,societe_id,ville_depart,ville_arrive,depart_time,arrive_time,nextday,tarif,classe) VALUES
(331,2,3,1,12,'00:30:00','09:50:00','false',225 ,2 ),
(332,2,3,1,12,'02:00:00','11:50:00','false',225 ,2 ),
(333,2,3,1,12,'02:30:00','13:50:00','false',225 ,2 ),
(334,2,3,1,12,'05:00:00','13:50:00','false',225 ,2 ),
(335,2,3,1,12,'06:00:00','15:50:00','false',225 ,2 ),
(336,2,3,1,12,'07:00:00','15:50:00','false',225 ,2 ),
(337,2,3,1,12,'09:00:00','18:50:00','false',225 ,2 ),
(338,2,3,1,12,'11:00:00','20:50:00','false',225 ,2 ); 


INSERT INTO voyages (id,type_id,societe_id,ville_depart,ville_arrive,depart_time,arrive_time,nextday,tarif,classe) VALUES
(339,2,3,1,14,'09:00:00','12:44:00','false',65 ,3 );

INSERT INTO voyages (id,type_id,societe_id,ville_depart,ville_arrive,depart_time,arrive_time,nextday,tarif,classe) VALUES
(340,2,2,1,14,'12:30:00','16:05:00','false',75 ,3 ),
(341,2,2,1,14,'08:00:00','11:20:00','false',75 ,3 );


INSERT INTO voyages (id,type_id,societe_id,ville_depart,ville_arrive,depart_time,arrive_time,nextday,tarif,classe) VALUES
(342,2,3,1,15,'00:30:00','09:60:00','false',235 ,2 ),
(343,2,3,1,15,'02:00:00','11:46:00','false',235 ,2 ),
(344,2,3,1,15,'02:30:00','13:46:00','false',235 ,2 ),
(345,2,3,1,15,'05:00:00','13:46:00','false',235 ,2 ),
(346,2,3,1,15,'06:00:00','15:46:00','false',235 ,2 ),
(347,2,3,1,15,'07:00:00','15:46:00','false',235 ,2 ),
(348,2,3,1,15,'09:00:00','17:46:00','false',235 ,2 ),
(349,2,3,1,15,'11:00:00','19:46:00','false',235 ,2 ),
(350,2,3,1,15,'11:30:00','23:49:00','false',235 ,2 ),
(351,2,3,1,15,'13:00:00','21:46:00','false',235 ,2 ),
(352,2,3,1,15,'15:00:00','23:49:00','false',235 ,2 ),
(353,2,3,1,15,'17:00:00','02:29:00','true',235 , 2);


INSERT INTO voyages (id,type_id,societe_id,ville_depart,ville_arrive,depart_time,arrive_time,nextday,tarif,classe) VALUES
(354,2,2,1,16,'22:30:00','08:00:00','true',220 ,3 );



INSERT INTO voyages (id,type_id,societe_id,ville_depart,ville_arrive,depart_time,arrive_time,nextday,tarif,classe) VALUES
(355,2,3,1,17,'08:30:00','18:35:00','false',187 ,3 );


INSERT INTO voyages (id,type_id,societe_id,ville_depart,ville_arrive,depart_time,arrive_time,nextday,tarif,classe) VALUES
(356,2,3,1,18,'10:00:00','19:59:00','false',230 ,3 ),
(357,2,3,1,18,'19:00:00','06:59:00','true',230 ,3 ),
(358,2,3,1,18,'20:30:00','06:59:00','true',230 ,3 ),
(359,2,3,1,18,'21:00:00','09:29:00','true',230 ,3 );


INSERT INTO voyages (id,type_id,societe_id,ville_depart,ville_arrive,depart_time,arrive_time,nextday,tarif,classe) VALUES
(360,2,2,1,18,'00:40:00','11:30:00','false',240 ,3 ),
(361,2,2,1,18,'07:30:00','17:00:00','false',240 ,3 ),
(362,2,2,1,18,'10:00:00','21:40:00','false',240 ,3 ),
(363,2,2,1,18,'18:00:00','05:15:00','true',240 ,3 ),
(364,2,2,1,18,'20:45:00','07:30:00','true',240 ,3 ),
(365,2,2,1,18,'21:45:00','08:15:00','true',240 ,3 ),
(366,2,2,1,18,'22:15:00','19:15:00','true',230 ,3 ),
(367,2,2,1,18,'22:30:00','10:00:00','true',240 ,3 );



INSERT INTO voyages (id,type_id,societe_id,ville_depart,ville_arrive,depart_time,arrive_time,nextday,tarif,classe) VALUES
(368,2,3,1,19,'02:30:00','23:12:00','false',348 ,2 ),
(369,2,3,1,19,'05:00:00','23:12:00','false',348 ,2 ),
(370,2,3,1,19,'11:00:00','05:57:00','true',348 , 2),
(371,2,3,1,19,'11:30:00','09:32:00','true',348 , 2),
(372,2,3,1,19,'15:00:00','09:32:00','true',348 , 2),
(373,2,3,1,19,'19:30:00','17:02:00','true',348 , 2);


INSERT INTO voyages (id,type_id,societe_id,ville_depart,ville_arrive,depart_time,arrive_time,nextday,tarif,classe) VALUES
(374,2,3,1,20,'02:00:00','21:00:00','false',380 ,2 ),
(375,2,3,1,20,'11:30:00','08:10:00','true',380 ,2 ),
(376,2,3,1,20,'15:00:00','08:10:00','true',380 ,2 ),
(377,2,3,1,20,'19:30:00','16:35:00','true',380 ,2 );


INSERT INTO voyages (id,type_id,societe_id,ville_depart,ville_arrive,depart_time,arrive_time,nextday,tarif,classe) VALUES
(378,2,3,1,22,'09:00:00','15:00:00','false',100 ,3 );


INSERT INTO voyages (id,type_id,societe_id,ville_depart,ville_arrive,depart_time,arrive_time,nextday,tarif,classe) VALUES
(379,2,2,1,22,'12:30:00','18:05:00','false',115 ,3 ),
(380,2,2,1,22,'08:00:00','14:15:00','false',115 ,3 );


INSERT INTO voyages (id,type_id,societe_id,ville_depart,ville_arrive,depart_time,arrive_time,nextday,tarif,classe) VALUES
(381,2,3,1,23,'20:30:00','06:00:00','true',170 ,3 );

INSERT INTO voyages (id,type_id,societe_id,ville_depart,ville_arrive,depart_time,arrive_time,nextday,tarif,classe) VALUES
(382,2,2,1,23,'20:15:00','06:30:00','true',170 ,3 );




INSERT INTO voyages (id,type_id,societe_id,ville_depart,ville_arrive,depart_time,arrive_time,nextday,tarif,classe) VALUES
(383,2,3,1,24,'02:00:00','17:44:00','false',352 ,2 ),
(384,2,3,1,24,'09:00:00','23:45:00','false',352 ,2 ),
(385,2,3,1,24,'17:00:00','08:44:00','true',352  ,2 );



INSERT INTO voyages (id,type_id,societe_id,ville_depart,ville_arrive,depart_time,arrive_time,nextday,tarif,classe) VALUES
(386,2,3,1,11,'10:00:00','05:59:00','true',380 ,3 ),
(387,2,3,1,11,'19:00:00','15:00:00','true',380 ,3 ),
(388,2,3,1,11,'21:00:00','17:00:00','true',380 ,3 );




INSERT INTO voyages (id,type_id,societe_id,ville_depart,ville_arrive,depart_time,arrive_time,nextday,tarif,classe) VALUES
(730,1,1,4,1,'04:50:00','11:59:00','false',190 ,2 ),
(731,1,1,4,1,'06:50:00','14:29:00','false',190 ,2 ),
(732,1,1,4,1,'08:50:00','16:29:00','false',190 ,2 ),
(733,1,1,4,1,'10:50:00','18:29:00','false',190 ,2 ),
(734,1,1,4,1,'12:50:00','20:00:00','false',190 ,2 ),
(735,1,1,4,1,'14:50:00','22:29:00','false',190 ,2 ),
(736,1,1,4,1,'16:50:00','00:31:00','true',190 ,2 ),
(737,1,1,4,1,'18:50:00','02:29:00','true',190 ,2 ),
(738,1,1,4,1,'20:50:00','04:29:00','true',190 ,2 );




INSERT INTO voyages (id,type_id,societe_id,ville_depart,ville_arrive,depart_time,arrive_time,nextday,tarif,classe) VALUES
(748,2,2,4,1,'07:00:00','14:30:00','false',205 ,3 ),
(749,2,2,4,1,'08:30:00','15:45:00','false',205 ,3 ),
(750,2,2,4,1,'15:30:00','22:15:00','false',205 ,3 ),
(751,2,2,4,1,'21:15:00','05:00:00','true',205 ,3 ),
(752,2,2,4,1,'23:40:00','06:10:00','true',205 ,3 ),
(753,2,2,4,1,'23:59:00','06:00:00','true',260 ,3 );



INSERT INTO voyages (id,type_id,societe_id,ville_depart,ville_arrive,depart_time,arrive_time,nextday,tarif,classe) VALUES
(754,1,1,4,2,'00:45:00','01:53:00','false',35 ,2 ),
(755,1,1,4,2,'05:15:00','06:10:00','false',35 ,2 ),
(756,1,1,4,2,'05:45:00','06:45:00','false',35 ,2 ),
(757,1,1,4,2,'06:15:00','07:15:00','false',35 ,2 ),
(758,1,1,4,2,'06:34:00','07:55:00','false',39 ,2 ),
(759,1,1,4,2,'07:15:00','08:10:00','false',35 ,2 ),
(760,1,1,4,2,'07:34:00','09:00:00','false',39 ,2 ),
(761,1,1,4,2,'07:45:00','08:45:00','false',35 ,2 ),
(762,1,1,4,2,'07:55:00','09:00:00','false',39 ,2 ),
(763,1,1,4,2,'08:15:00','09:15:00','false',35 ,2 ),
(764,1,1,4,2,'08:34:00','09:55:00','false',39 ,2 ),
(765,1,1,4,2,'09:15:00','10:10:00','false',35 ,2 ),
(766,1,1,4,2,'09:34:00','11:00:00','false',39 ,2 ),
(767,1,1,4,2,'09:45:00','10:45:00','false',35 ,2 ),
(768,1,1,4,2,'09:55:00','11:00:00','false',39 ,2 ),
(769,1,1,4,2,'10:15:00','11:15:00','false',35 ,2 ),
(770,1,1,4,2,'10:34:00','11:55:00','false',39 ,2 ),
(771,1,1,4,2,'11:15:00','12:10:00','false',35 ,2 ),
(772,1,1,4,2,'11:34:00','13:00:00','false',39 ,2 ),
(773,1,1,4,2,'11:45:00','12:45:00','false',35 ,2 ),
(774,1,1,4,2,'11:55:00','13:00:00','false',39 ,2 ),
(775,1,1,4,2,'12:15:00','13:15:00','false',35 ,2 ),
(776,1,1,4,2,'12:34:00','13:55:00','false',39 ,2 ),
(777,1,1,4,2,'13:15:00','14:10:00','false',35 ,2 ),
(778,1,1,4,2,'13:20:00','14:30:00','false',39 ,2 ),
(779,1,1,4,2,'13:34:00','15:00:00','false',39 ,2 ),
(780,1,1,4,2,'13:45:00','14:45:00','false',35 ,2 ),
(781,1,1,4,2,'13:55:00','15:00:00','false',39 ,2 ),
(782,1,1,4,2,'14:15:00','15:15:00','false',35 ,2 ),
(783,1,1,4,2,'14:34:00','15:55:00','false',39 ,2 ),
(784,1,1,4,2,'15:15:00','16:10:00','false',35 ,2 ),
(785,1,1,4,2,'15:34:00','17:00:00','false',39 ,2 ),
(786,1,1,4,2,'15:45:00','16:45:00','false',35 ,2 ),
(787,1,1,4,2,'15:55:00','17:00:00','false',39 ,2 ),
(788,1,1,4,2,'16:15:00','17:15:00','false',35 ,2 ),
(789,1,1,4,2,'16:34:00','17:55:00','false',39 ,2 ),
(790,1,1,4,2,'17:15:00','18:10:00','false',35 ,2 ),
(791,1,1,4,2,'17:34:00','19:00:00','false',39 ,2 ),
(792,1,1,4,2,'17:45:00','18:45:00','false',35 ,2 ),
(793,1,1,4,2,'18:15:00','19:15:00','false',35 ,2 ),
(794,1,1,4,2,'18:34:00','20:00:00','false',39 ,2 ),
(795,1,1,4,2,'18:55:00','20:00:00','false',39 ,2 ),
(796,1,1,4,2,'19:34:00','21:00:00','false',39 ,2 ),
(797,1,1,4,2,'19:45:00','20:45:00','false',35 ,2 ),
(798,1,1,4,2,'20:09:00','21:40:00','false',39 ,2 ),
(799,1,1,4,2,'20:15:00','21:15:00','false',35 ,2 ),
(800,1,1,4,2,'20:55:00','22:30:00','false',39 ,2 ),
(801,1,1,4,2,'22:15:00','23:15:00','false',35 ,2 ),
(802,1,1,4,2,'22:45:00','23:45:00','false',35 ,2 );


INSERT INTO voyages (id,type_id,societe_id,ville_depart,ville_arrive,depart_time,arrive_time,nextday,tarif,classe) VALUES
(803,2,2,4,2,'06:00:00','07:15:00','false',35 ,3 ),
(804,2,2,4,2,'07:15:00','08:30:00','false',35 ,3 ),
(805,2,2,4,2,'09:30:00','11:00:00','false',35 ,3 ),
(806,2,2,4,2,'13:30:00','14:45:00','false',35 ,3 ),
(807,2,2,4,2,'17:45:00','19:15:00','false',35 ,3 ),
(808,2,2,4,2,'07:30:00','08:50:00','false',35 ,3 ),
(809,2,2,4,2,'09:30:00','10:50:00','false',35 ,3 ),
(810,2,2,4,2,'11:00:00','12:15:00','false',35 ,3 ),
(811,2,2,4,2,'11:30:00','12:50:00','false',35 ,3 ),
(812,2,2,4,2,'12:00:00','13:25:00','false',35 ,3 ),
(813,2,2,4,2,'12:00:00','13:20:00','false',35 ,3 ),
(814,2,2,4,2,'13:15:00','14:30:00','false',35 ,3 ),
(815,2,2,4,2,'14:00:00','15:15:00','false',35 ,3 ),
(816,2,2,4,2,'14:00:00','15:30:00','false',35 ,3 ),
(817,2,2,4,2,'16:00:00','17:20:00','false',35 ,3 ),
(818,2,2,4,2,'20:30:00','21:55:00','false',35 ,3 ),
(819,2,2,4,2,'21:45:00','21:50:00','false',35 ,3 ),
(820,2,2,4,2,'22:00:00','23:20:00','false',35 ,3 ),
(821,2,2,4,2,'22:00:00','23:14:00','false',60 ,3 ),
(822,2,2,4,2,'23:45:00','01:00:00','true',35 ,3 ),
(823,2,2,4,2,'23:59:00','01:20:00','true',35 ,3 );


INSERT INTO voyages (id,type_id,societe_id,ville_depart,ville_arrive,depart_time,arrive_time,nextday,tarif,classe) VALUES
(824,1,1,4,3,'04:50:00','08:00:00','false',90  ,2 ),
(825,1,1,4,3,'06:50:00','10:00:00','false',90  ,2 ),
(826,1,1,4,3,'08:50:00','12:00:00','false',90  ,2 ),
(827,1,1,4,3,'10:50:00','14:00:00','false',90  ,2 ),
(828,1,1,4,3,'12:50:00','16:00:00','false',90  ,2 ),
(829,1,1,4,3,'14:50:00','18:00:00','false',90  ,2 ),
(830,1,1,4,3,'16:50:00','20:00:00','false',90  ,2 ),
(831,1,1,4,3,'18:50:00','22:00:00','false',90  ,2 ),
(832,1,1,4,3,'20:50:00','23:59:00','false',90  ,2 );



INSERT INTO voyages (id,type_id,societe_id,ville_depart,ville_arrive,depart_time,arrive_time,nextday,tarif,classe) VALUES
(833,2,2,4,3,'07:00:00','11:00:00','false',85 ,3 ),
(834,2,2,4,3,'07:30:00','11:00:00','false',90 ,3 ),
(835,2,2,4,3,'08:30:00','12:15:00','false',90 ,3 ),
(836,2,2,4,3,'21:15:00','01:15:00','true',85 ,3 ),
(837,2,2,4,3,'22:00:00','01:35:00','true',85 ,3 ),
(838,2,2,4,3,'23:00:00','02:20:00','true',85 ,3 ),
(839,2,2,4,3,'23:40:00','01:30:00','true',85 ,3 );




INSERT INTO voyages (id,type_id,societe_id,ville_depart,ville_arrive,depart_time,arrive_time,nextday,tarif,classe) VALUES
(840,1,1,4,5,'00:45:00','07:00:00','false',125  ,2 ),
(841,1,1,4,5,'05:45:00','10:30:00','false',125  ,2 ),
(842,1,1,4,5,'07:45:00','12:30:00','false',125  ,2 ),
(843,1,1,4,5,'08:15:00','14:55:00','false',125  ,2 ),
(844,1,1,4,5,'09:45:00','14:30:00','false',125  ,2 ),
(845,1,1,4,5,'11:45:00','16:30:00','false',125  ,2 ),
(846,1,1,4,5,'13:45:00','18:30:00','false',125  ,2 ),
(847,1,1,4,5,'15:45:00','20:20:00','false',125  ,2 ),
(848,1,1,4,5,'17:45:00','22:25:00','false',125  ,2 );



INSERT INTO voyages (id,type_id,societe_id,ville_depart,ville_arrive,depart_time,arrive_time,nextday,tarif,classe) VALUES
(849,2,2,4,5,'06:00:00','17:00:00','false',145 ,3 ),
(850,2,2,4,5,'11:00:00','16:30:00','false',145 ,3 ),
(851,2,2,4,5,'14:00:00','19:30:00','false',145 ,3 ),
(852,2,2,4,5,'23:45:00','05:00:00','true',145 ,3 );




INSERT INTO voyages (id,type_id,societe_id,ville_depart,ville_arrive,depart_time,arrive_time,nextday,tarif,classe) VALUES
(853,1,1,4,6,'06:15:00','10:10:00','false',110  ,2 ),
(854,1,1,4,6,'08:15:00','12:10:00','false',110  ,2 ),
(855,1,1,4,6,'09:15:00','12:35:00','false',110  ,2 ),
(856,1,1,4,6,'10:15:00','14:10:00','false',110  ,2 ),
(857,1,1,4,6,'11:15:00','14:35:00','false',110  ,2 ),
(858,1,1,4,6,'12:15:00','16:10:00','false',110  ,2 ),
(859,1,1,4,6,'13:15:00','16:35:00','false',110  ,2 ),
(860,1,1,4,6,'14:15:00','18:10:00','false',110  ,2 ),
(861,1,1,4,6,'15:15:00','18:35:00','false',110  ,2 ),
(862,1,1,4,6,'16:15:00','20:10:00','false',110  ,2 ),
(863,1,1,4,6,'17:15:00','20:35:00','false',110  ,2 ),
(864,1,1,4,6,'18:15:00','22:10:00','false',110  ,2 ),
(865,1,1,4,6,'19:15:00','23:40:00','false',110  ,2 ),
(866,1,1,4,6,'20:15:00','00:10:00','true',110  ,2 ),
(867,1,1,4,6,'22:15:00','02:10:00','true',110  ,2 ),
(868,1,1,4,6,'22:45:00','02:30:00','true',110  ,2 );

INSERT INTO voyages (id,type_id,societe_id,ville_depart,ville_arrive,depart_time,arrive_time,nextday,tarif,classe) VALUES
(869,2,2,4,6,'13:30:00','18:30:00','false',100 ,3 ),
(870,2,2,4,6,'07:30:00','12:30:00','false',100 ,3 ),
(871,2,2,4,6,'12:00:00','16:30:00','false',100 ,3 ),
(872,2,2,4,6,'14:00:00','19:00:00','false',85 ,3 ),
(873,2,2,4,6,'20:30:00','01:25:00','true',85 ,3 ),
(874,2,2,4,6,'21:30:00','01:45:00','true',85 ,3 ),
(875,2,2,4,6,'22:00:00','02:29:00','true',95 ,3 );




INSERT INTO voyages (id,type_id,societe_id,ville_depart,ville_arrive,depart_time,arrive_time,nextday,tarif,classe) VALUES
(876,1,1,4,7,'06:15:00','09:32:00','false',90  ,2 ),
(877,1,1,4,7,'08:15:00','11:32:00','false',90  ,2 ),
(878,1,1,4,7,'09:15:00','12:01:00','false',90  ,2 ),
(879,1,1,4,7,'10:15:00','13:32:00','false',90  ,2 ),
(880,1,1,4,7,'11:15:00','14:01:00','false',90  ,2 ),
(881,1,1,4,7,'12:15:00','15:32:00','false',90  ,2 ),
(882,1,1,4,7,'13:15:00','16:01:00','false',90  ,2 ),
(883,1,1,4,7,'14:15:00','17:32:00','false',90  ,2 ),
(884,1,1,4,7,'15:15:00','18:02:00','false',90  ,2 ),
(885,1,1,4,7,'16:15:00','19:32:00','false',90  ,2 ),
(886,1,1,4,7,'17:15:00','20:05:00','false',90  ,2 ),
(887,1,1,4,7,'18:15:00','21:31:00','false',90  ,2 ),
(888,1,1,4,7,'19:15:00','23:02:00','false',90  ,2 ),
(889,1,1,4,7,'20:15:00','23:29:00','false',90  ,2 ),
(890,1,1,4,7,'22:15:00','01:29:00','false',90  ,2 ),
(891,1,1,4,7,'22:45:00','01:55:00','false',90  ,2 );


INSERT INTO voyages (id,type_id,societe_id,ville_depart,ville_arrive,depart_time,arrive_time,nextday,tarif,classe) VALUES
(892,2,2,4,7,'13:30:00','17:25:00','false',90 ,3 ),
(893,2,2,4,7,'07:30:00','11:20:00','false',90 ,3 ),
(894,2,2,4,7,'14:00:00','17:45:00','false',80 ,3 ),
(895,2,2,4,7,'20:30:00','00:15:00','true',80 ,3 ),
(896,2,2,4,7,'21:45:00','01:30:00','true',90 ,3 );



INSERT INTO voyages (id,type_id,societe_id,ville_depart,ville_arrive,depart_time,arrive_time,nextday,tarif,classe) VALUES
(897,2,2,4,8,'11:30:00','16:15:00','false',125 ,3 );



INSERT INTO voyages (id,type_id,societe_id,ville_depart,ville_arrive,depart_time,arrive_time,nextday,tarif,classe) VALUES
(898,1,1,4,9,'06:55:00','11:29:00','false',70  ,2 ),
(899,1,1,4,9,'12:55:00','17:30:00','false',70  ,2 );


INSERT INTO voyages (id,type_id,societe_id,ville_depart,ville_arrive,depart_time,arrive_time,nextday,tarif,classe) VALUES
(900,2,2,4,9,'09:00:00','12:45:00','false',90 ,3 ),
(901,2,2,4,9,'13:00:00','17:40:00','false',90 ,3 ),
(902,2,2,4,9,'16:00:00','19:45:00','false',90 ,3 );



INSERT INTO voyages (id,type_id,societe_id,ville_depart,ville_arrive,depart_time,arrive_time,nextday,tarif,classe) VALUES
(903,1,1,4,10,'10:50:00','10:59:00','true',450 ,2 ),
(904,1,1,4,10,'10:50:00','11:29:00','true',450 ,2 ),
(905,1,1,4,10,'18:50:00','17:59:00','true',450 ,2 );


INSERT INTO voyages (id,type_id,societe_id,ville_depart,ville_arrive,depart_time,arrive_time,nextday,tarif,classe) VALUES
(906,1,1,4,11,'10:50:00','15:59:00','true',560 ,2 ),
(907,1,1,4,11,'18:50:00','22:00:00','true',560 ,2 );




INSERT INTO voyages (id,type_id,societe_id,ville_depart,ville_arrive,depart_time,arrive_time,nextday,tarif,classe) VALUES
(908,1,1,4,12,'08:27:00','09:50:00','false',35 ,2 ),
(909,1,1,4,12,'09:20:00','10:45:00','false',35 ,2 ),
(910,1,1,4,12,'10:27:00','11:50:00','false',35 ,2 ),
(911,1,1,4,12,'12:27:00','13:50:00','false',35 ,2 ),
(912,1,1,4,12,'14:27:00','15:50:00','false',35 ,2 ),
(913,1,1,4,12,'16:27:00','17:50:00','false',35 ,2 ),
(914,1,1,4,12,'17:27:00','18:50:00','false',35 ,2 ),
(915,1,1,4,12,'19:27:00','20:50:00','false',35 ,2 );


INSERT INTO voyages (id,type_id,societe_id,ville_depart,ville_arrive,depart_time,arrive_time,nextday,tarif,classe) VALUES
(916,2,2,4,12,'07:00:00','08:50:00','false',45 ,3 ),
(917,2,2,4,12,'10:30:00','12:20:00','false',45 ,3 ),
(918,2,2,4,12,'12:30:00','14:20:00','false',45 ,3 ),
(919,2,2,4,12,'15:30:00','17:15:00','false',45 ,3 ),
(920,2,2,4,12,'21:00:00','22:45:00','false',45 ,3 );



INSERT INTO voyages (id,type_id,societe_id,ville_depart,ville_arrive,depart_time,arrive_time,nextday,tarif,classe) VALUES
(921,2,2,4,13,'21:45:00','17:45:00','true',200 ,3 );




INSERT INTO voyages (id,type_id,societe_id,ville_depart,ville_arrive,depart_time,arrive_time,nextday,tarif,classe) VALUES
(922,1,1,4,14,'06:50:00','13:45:00','false',160 ,2 ),
(923,1,1,4,14,'10:50:00','17:45:00','false',160 ,2 ),
(924,1,1,4,14,'12:50:00','19:59:00','false',160 ,2 ),
(925,1,1,4,14,'14:50:00','21:59:00','false',160 ,2 );

INSERT INTO voyages (id,type_id,societe_id,ville_depart,ville_arrive,depart_time,arrive_time,nextday,tarif,classe) VALUES
(926,2,2,4,14,'07:00:00','14:15:00','false',150 ,3 ),
(927,2,2,4,14,'10:30:00','17:50:00','false',150 ,3 ),
(928,2,2,4,14,'15:30:00','22:30:00','false',150 ,3 );



INSERT INTO voyages (id,type_id,societe_id,ville_depart,ville_arrive,depart_time,arrive_time,nextday,tarif,classe) VALUES
(929,1,1,4,15,'00:45:00','02:29:00','false',48 ,2 ),
(930,1,1,4,15,'05:45:00','07:14:00','false',48 ,2 ),
(931,1,1,4,15,'06:15:00','07:46:00','false',48 ,2 ),
(932,1,1,4,15,'07:45:00','09:14:00','false',48 ,2 ),
(933,1,1,4,15,'08:15:00','09:46:00','false',48 ,2 ),
(934,1,1,4,15,'09:15:00','10:35:00','false',48 ,2 ),
(935,1,1,4,15,'09:45:00','11:14:00','false',48 ,2 ),
(936,1,1,4,15,'10:15:00','11:46:00','false',48 ,2 ),
(937,1,1,4,15,'11:15:00','12:35:00','false',48 ,2 ),
(938,1,1,4,15,'11:34:00','13:32:00','false',52 ,2 ),
(939,1,1,4,15,'11:45:00','13:14:00','false',48 ,2 ),
(940,1,1,4,15,'11:55:00','13:32:00','false',52 ,2 ),
(941,1,1,4,15,'12:15:00','13:46:00','false',48 ,2 ),
(942,1,1,4,15,'13:15:00','14:35:00','false',48 ,2 ),
(943,1,1,4,15,'13:34:00','15:32:00','false',52 ,2 ),
(944,1,1,4,15,'13:45:00','15:14:00','false',48 ,2 ),
(945,1,1,4,15,'13:55:00','15:32:00','false',52 ,2 ),
(946,1,1,4,15,'14:15:00','15:46:00','false',48 ,2 ),
(947,1,1,4,15,'14:34:00','16:26:00','false',52 ,2 ),
(948,1,1,4,15,'15:15:00','16:35:00','false',48 ,2 ),
(949,1,1,4,15,'15:34:00','17:29:00','false',52 ,2 ),
(950,1,1,4,15,'15:45:00','17:14:00','false',48 ,2 ),
(951,1,1,4,15,'15:55:00','17:29:00','false',52 ,2 ),
(952,1,1,4,15,'16:15:00','17:46:00','false',48 ,2 ),
(953,1,1,4,15,'16:34:00','18:26:00','false',52 ,2 ),
(954,1,1,4,15,'17:15:00','18:35:00','false',48 ,2 ),
(955,1,1,4,15,'17:34:00','19:32:00','false',52 ,2 ),
(956,1,1,4,15,'17:45:00','19:14:00','false',48 ,2 ),
(957,1,1,4,15,'18:15:00','19:46:00','false',48 ,2 ),
(958,1,1,4,15,'18:34:00','20:32:00','false',52 ,2 ),
(959,1,1,4,15,'18:55:00','20:32:00','false',52 ,2 ),
(960,1,1,4,15,'19:34:00','21:32:00','false',52 ,2 ),
(961,1,1,4,15,'19:45:00','21:20:00','false',48 ,2 ),
(962,1,1,4,15,'20:09:00','22:12:00','false',52 ,2 ),
(963,1,1,4,15,'20:15:00','21:46:00','false',48 ,2 ),
(964,1,1,4,15,'20:55:00','23:02:00','false',52 ,2 ),
(965,1,1,4,15,'22:15:00','23:49:00','false',48 ,2 ),
(966,1,1,4,15,'22:45:00','00:18:00','true',48 ,2 );




INSERT INTO voyages (id,type_id,societe_id,ville_depart,ville_arrive,depart_time,arrive_time,nextday,tarif,classe) VALUES
(967,1,1,4,17,'06:55:00','09:20:00','false',35 ,2 ),
(968,1,1,4,17,'12:55:00','15:20:00','false',35 ,2 ),
(969,1,1,4,17,'18:55:00','21:20:00','false',35 ,2 );

INSERT INTO voyages (id,type_id,societe_id,ville_depart,ville_arrive,depart_time,arrive_time,nextday,tarif,classe) VALUES
(970,2,2,4,17,'09:00:00','10:55:00','false',45 ,3 ),
(971,2,2,4,17,'13:00:00','15:30:00','false',45 ,3 ),
(972,2,2,4,17,'16:00:00','18:00:00','false',45 ,3 );


INSERT INTO voyages (id,type_id,societe_id,ville_depart,ville_arrive,depart_time,arrive_time,nextday,tarif,classe) VALUES
(973,1,1,4,18,'10:50:00','08:29:00','true',425 ,2 ),
(974,1,1,4,18,'12:50:00','08:30:00','true',425 ,2 ),
(975,1,1,4,18,'14:50:00','10:29:00','true',425 ,2 ),
(976,1,1,4,18,'18:50:00','14:29:00','true',425 ,2 );

INSERT INTO voyages (id,type_id,societe_id,ville_depart,ville_arrive,depart_time,arrive_time,nextday,tarif,classe) VALUES
(977,2,2,4,18,'15:30:00','10:00:00','true',440 ,3 );



INSERT INTO voyages (id,type_id,societe_id,ville_depart,ville_arrive,depart_time,arrive_time,nextday,tarif,classe) VALUES
(978,1,1,4,19,'06:15:00','17:02:00','false',185 ,2 ),
(979,1,1,4,19,'12:15:00','23:12:00','false',185 ,2 ),
(980,1,1,4,19,'13:15:00','23:12:00','false',185 ,2 ),
(981,1,1,4,19,'19:45:00','05:57:00','true',185 ,2 ),
(982,1,1,4,19,'22:45:00','09:32:00','true',185 ,2 );



INSERT INTO voyages (id,type_id,societe_id,ville_depart,ville_arrive,depart_time,arrive_time,nextday,tarif,classe) VALUES
(983,2,2,4,19,'22:00:00','07:29:00','true',200 ,3 );




INSERT INTO voyages (id,type_id,societe_id,ville_depart,ville_arrive,depart_time,arrive_time,nextday,tarif,classe) VALUES
(984,1,1,4,20,'06:15:00','16:35:00','false',205 ,2 ),
(985,1,1,4,20,'10:15:00','21:00:00','false',205 ,2 ),
(986,1,1,4,20,'11:15:00','21:00:00','false',205 ,2 ),
(987,1,1,4,20,'22:45:00','08:10:00','true',205 ,2 );


INSERT INTO voyages (id,type_id,societe_id,ville_depart,ville_arrive,depart_time,arrive_time,nextday,tarif,classe) VALUES
(988,2,2,4,20,'07:30:00','18:30:00','false',215 ,3 ),
(989,2,2,4,20,'21:30:00','06:15:00','true',210 ,3 ),
(990,2,2,4,20,'22:00:00','06:30:00','true',280 ,3 );


INSERT INTO voyages (id,type_id,societe_id,ville_depart,ville_arrive,depart_time,arrive_time,nextday,tarif,classe) VALUES
(999,1,1,4,24,'00:45:00','08:44:00','false',149 ,2 ),
(991,1,1,4,24,'07:45:00','13:44:00','false',149 ,2 ),
(992,1,1,4,24,'11:45:00','17:44:00','false',149 ,2 ),
(993,1,1,4,24,'17:45:00','23:45:00','false',149 ,2 );

INSERT INTO voyages (id,type_id,societe_id,ville_depart,ville_arrive,depart_time,arrive_time,nextday,tarif,classe) VALUES
(994,2,2,4,24,'07:15:00','13:00:00','false',155 ,3 ),
(995,2,2,4,24,'09:30:00','16:00:00','false',155 ,3 ),
(996,2,2,4,24,'12:00:00','18:30:00','false',155 ,3 ),
(997,2,2,4,24,'16:00:00','22:30:00','false',155 ,3 ),
(998,2,2,4,24,'23:59:00','05:25:00','true',155 ,3 );





INSERT INTO voyages (id,type_id,societe_id,ville_depart,ville_arrive,depart_time,arrive_time,nextday,tarif,classe) VALUES
(1100,1,1,6,1,'02:30:00','14:29:00','false',295 ,2 ),
(1101,1,1,6,1,'04:50:00','16:29:00','false',295 ,2 ),
(1102,1,1,6,1,'06:50:00','18:29:00','false',295 ,2 ),
(1103,1,1,6,1,'08:50:00','20:29:00','false',295 ,2 ),
(1104,1,1,6,1,'10:50:00','22:29:00','false',295 ,2 ),
(1105,1,1,6,1,'12:50:00','00:31:00','true',295 ,2 ),
(1106,1,1,6,1,'14:50:00','02:29:00','true',295 ,2 ),
(1107,1,1,6,1,'16:50:00','04:29:00','true',295 ,2 );

INSERT INTO voyages (id,type_id,societe_id,ville_depart,ville_arrive,depart_time,arrive_time,nextday,tarif,classe) VALUES
(505,2,2,6,1,'20:00:00','08:15:00','true',275 ,3 ),
(506,2,2,6,1,'21:30:00','09:45:00','true',260 ,3 ),
(507,2,2,6,1,'22:00:00','10:00:00','true',260 ,3 );




INSERT INTO voyages (id,type_id,societe_id,ville_depart,ville_arrive,depart_time,arrive_time,nextday,tarif,classe) VALUES
(1108,1,1,6,2,'01:45:00','05:06:00','false',80 ,2 ),
(1109,1,1,6,2,'02:10:00','05:23:00','false',80 ,2 ),
(1110,1,1,6,2,'02:30:00','05:38:00','false',80 ,2 ),
(1111,1,1,6,2,'04:50:00','07:42:00','false',80 ,2 ),
(1112,1,1,6,2,'05:50:00','08:12:00','false',80 ,2 ),
(1113,1,1,6,2,'06:50:00','09:41:00','false',80 ,2 ),
(1114,1,1,6,2,'07:50:00','10:12:00','false',80 ,2 ),
(1115,1,1,6,2,'08:50:00','11:42:00','false',80 ,2 ),
(1116,1,1,6,2,'09:50:00','12:12:00','false',80 ,2 ),
(1117,1,1,6,2,'10:50:00','13:42:00','false',80 ,2 ),
(1118,1,1,6,2,'11:50:00','14:12:00','false',80 ,2 ),
(1119,1,1,6,2,'12:50:00','15:42:00','false',80 ,2 ),
(1120,1,1,6,2,'13:50:00','16:12:00','false',80 ,2 ),
(1121,1,1,6,2,'14:50:00','17:42:00','false',80 ,2 ),
(1122,1,1,6,2,'15:50:00','18:12:00','false',80 ,2 ),
(1123,1,1,6,2,'16:50:00','19:42:00','false',80 ,2 ),
(1124,1,1,6,2,'17:50:00','20:12:00','false',80 ,2 ),
(1125,1,1,6,2,'18:50:00','21:40:00','false',80 ,2 ),
(1126,1,1,6,2,'20:50:00','23:40:00','false',80 ,2 );


INSERT INTO voyages (id,type_id,societe_id,ville_depart,ville_arrive,depart_time,arrive_time,nextday,tarif,classe) VALUES
(1130,2,2,6,2,'02:15:00','05:15:00','false',75 ,3 ),
(1131,2,2,6,2,'02:30:00','06:15:00','false',70 ,3 ),
(1132,2,2,6,2,'03:00:00','06:00:00','false',70 ,3 ),
(1133,2,2,6,2,'06:30:00','09:15:00','false',65 ,3 ),
(1134,2,2,6,2,'08:30:00','11:15:00','false',75 ,3 ),
(1135,2,2,6,2,'09:45:00','12:45:00','false',70 ,3 ),
(1136,2,2,6,2,'13:30:00','16:15:00','false',75 ,3 ),
(1137,2,2,6,2,'22:00:00','01:30:00','true',75 ,3 );


INSERT INTO voyages (id,type_id,societe_id,ville_depart,ville_arrive,depart_time,arrive_time,nextday,tarif,classe) VALUES
(1138,1,1,6,3,'02:30:00','10:00:00','false',195,2 ),
(1139,1,1,6,3,'04:50:00','12:00:00','false',195,2 ),
(1140,1,1,6,3,'06:50:00','14:00:00','false',195,2 ),
(1141,1,1,6,3,'08:50:00','16:00:00','false',195,2 ),
(1142,1,1,6,3,'10:50:00','18:00:00','false',195,2 ),
(1143,1,1,6,3,'12:50:00','20:00:00','false',195,2 ),
(1144,1,1,6,3,'14:50:00','22:00:00','false',195,2 ),
(1145,1,1,6,3,'16:50:00','23:59:00','false',195,2 );


INSERT INTO voyages (id,type_id,societe_id,ville_depart,ville_arrive,depart_time,arrive_time,nextday,tarif,classe) VALUES
(1146,2,2,6,3,'07:00:00','16:30:00','false',165 ,3 ),
(1147,2,2,6,3,'20:00:00','05:45:00','true',175 ,3 ),
(1148,2,2,6,3,'21:30:00','07:15:00','true',165 ,3 ),
(1149,2,2,6,3,'22:00:00','06:30:00','true',165 ,3 );



INSERT INTO voyages (id,type_id,societe_id,ville_depart,ville_arrive,depart_time,arrive_time,nextday,tarif,classe) VALUES
(1150,1,1,6,4,'01:45:00','06:15:00','false',110 ,2 ),
(1151,1,1,6,4,'02:10:00','06:30:00','false',110 ,2 ),
(1152,1,1,6,4,'02:30:00','06:45:00','false',110 ,2 ),
(1153,1,1,6,4,'04:50:00','08:45:00','false',110 ,2 ),
(1154,1,1,6,4,'05:50:00','09:10:00','false',110 ,2 ),
(1155,1,1,6,4,'06:50:00','10:45:00','false',110 ,2 ),
(1156,1,1,6,4,'07:50:00','11:10:00','false',110 ,2 ),
(1157,1,1,6,4,'08:50:00','12:45:00','false',110 ,2 ),
(1158,1,1,6,4,'09:50:00','13:10:00','false',110 ,2 ),
(1159,1,1,6,4,'10:50:00','14:45:00','false',110 ,2 ),
(1160,1,1,6,4,'11:50:00','15:10:00','false',110 ,2 ),
(1161,1,1,6,4,'12:50:00','16:45:00','false',110 ,2 ),
(1162,1,1,6,4,'13:50:00','17:10:00','false',110 ,2 ),
(1163,1,1,6,4,'14:50:00','18:45:00','false',110 ,2 ),
(1164,1,1,6,4,'15:50:00','19:10:00','false',110 ,2 ),
(1165,1,1,6,4,'16:50:00','20:45:00','false',110 ,2 ),
(1166,1,1,6,4,'17:50:00','21:10:00','false',110 ,2 ),
(1167,1,1,6,4,'18:50:00','22:45:00','false',110 ,2 ),
(1168,1,1,6,4,'20:50:00','00:45:00','true',110 ,2 );


INSERT INTO voyages (id,type_id,societe_id,ville_depart,ville_arrive,depart_time,arrive_time,nextday,tarif,classe) VALUES
(1169,2,2,6,4,'02:15:00','06:45:00','false',95 ,3 ),
(1170,2,2,6,4,'02:30:00','08:00:00','false',85 ,3 ),
(1171,2,2,6,4,'03:00:00','07:45:00','false',85 ,3 ),
(1172,2,2,6,4,'06:30:00','10:30:00','false',75 ,3 ),
(1173,2,2,6,4,'08:30:00','13:15:00','false',100 ,3 ),
(1174,2,2,6,4,'09:45:00','14:30:00','false',85 ,3 ),
(1175,2,2,6,4,'13:30:00','18:00:00','false',100 ,3 ),
(1176,2,2,6,4,'22:00:00','02:35:00','true',95 ,3 );



INSERT INTO voyages (id,type_id,societe_id,ville_depart,ville_arrive,depart_time,arrive_time,nextday,tarif,classe) VALUES
(1177,1,1,6,5,'01:45:00','07:00:00','false',105 ,2 ),
(1178,1,1,6,5,'02:10:00','07:00:00','false',105 ,2 ),
(1179,1,1,6,5,'07:10:00','12:30:00','false',105 ,2 ),
(1180,1,1,6,5,'10:20:00','14:55:00','false',105 ,2 ),
(1181,1,1,6,5,'13:05:00','17:25:00','false',105 ,2 ),
(1182,1,1,6,5,'17:05:00','21:25:00','false',105 ,2 );



INSERT INTO voyages (id,type_id,societe_id,ville_depart,ville_arrive,depart_time,arrive_time,nextday,tarif,classe) VALUES
(1183,2,2,6,5,'02:15:00','08:15:00','false',115 ,3 ),
(1184,2,2,6,5,'02:20:00','08:30:00','false',115 ,3 ),
(1185,2,2,6,5,'10:30:00','16:30:00','false',115 ,3 ),
(1186,2,2,6,5,'11:00:00','18:00:00','false',115 ,3 ),
(1187,2,2,6,5,'23:00:00','04:50:00','true ',115 ,3 );



INSERT INTO voyages (id,type_id,societe_id,ville_depart,ville_arrive,depart_time,arrive_time,nextday,tarif,classe) VALUES
(1188,1,1,6,7,'01:45:00','02:14:00','false',20 ,2 ),
(1189,1,1,6,7,'02:10:00','02:40:00','false',20 ,2 ),
(1190,1,1,6,7,'02:30:00','03:03:00','false',20 ,2 ),
(1191,1,1,6,7,'04:50:00','05:22:00','false',20 ,2 ),
(1192,1,1,6,7,'05:50:00','06:19:00','false',20 ,2 ),
(1193,1,1,6,7,'06:50:00','07:22:00','false',20 ,2 ),
(1194,1,1,6,7,'07:10:00','07:48:00','false',20 ,2 ),
(1195,1,1,6,7,'07:50:00','08:19:00','false',20 ,2 ),
(1196,1,1,6,7,'08:50:00','09:22:00','false',20 ,2 ),
(1197,1,1,6,7,'09:50:00','10:19:00','false',20 ,2 ),
(1198,1,1,6,7,'10:50:00','11:22:00','false',20 ,2 ),
(1199,1,1,6,7,'11:50:00','12:19:00','false',20 ,2 ),
(1200,1,1,6,7,'12:50:00','13:22:00','false',20 ,2 ),
(1201,1,1,6,7,'13:05:00','13:40:00','false',20 ,2 ),
(1202,1,1,6,7,'13:50:00','14:19:00','false',20 ,2 ),
(1203,1,1,6,7,'14:50:00','15:22:00','false',20 ,2 ),
(1204,1,1,6,7,'15:50:00','16:19:00','false',20 ,2 ),
(1205,1,1,6,7,'16:50:00','17:22:00','false',20 ,2 ),
(1206,1,1,6,7,'17:05:00','17:40:00','false',20 ,2 ),
(1207,1,1,6,7,'17:50:00','18:19:00','false',20 ,2 ),
(1208,1,1,6,7,'18:50:00','19:22:00','false',20 ,2 ),
(1209,1,1,6,7,'20:50:00','21:22:00','false',20 ,2 );



INSERT INTO voyages (id,type_id,societe_id,ville_depart,ville_arrive,depart_time,arrive_time,nextday,tarif,classe) VALUES
(1210,2,2,6,5,'02:15:00','03:15:00','false',25 ,3 ),
(1211,2,2,6,5,'02:20:00','03:25:00','false',25 ,3 ),
(1212,2,2,6,5,'02:30:00','03:00:00','false',25 ,3 ),
(1213,2,2,6,5,'10:30:00','11:30:00','false',25 ,3 ),
(1214,2,2,6,5,'22:00:00','22:55:00','false',25 ,3 ),
(1215,2,2,6,5,'22:15:00','23:15:00','false',25 ,3 ),
(1216,2,2,6,5,'23:00:00','00:10:00','true',25 ,3 );


INSERT INTO voyages (id,type_id,societe_id,ville_depart,ville_arrive,depart_time,arrive_time,nextday,tarif,classe) VALUES
(1217,2,2,6,8,'07:00:00','07:55:00','false',25 ,3 ),
(1218,2,2,6,8,'20:00:00','20:45:00','false',25 ,3 ),
(1219,2,2,6,8,'21:30:00','22:15:00','false',25 ,3 );


INSERT INTO voyages (id,type_id,societe_id,ville_depart,ville_arrive,depart_time,arrive_time,nextday,tarif,classe) VALUES
(1220,2,3,6,9,'19:30:00','00:59:00','false',172 ,3 );

INSERT INTO voyages (id,type_id,societe_id,ville_depart,ville_arrive,depart_time,arrive_time,nextday,tarif,classe) VALUES
(1221,2,2,6,9,'07:00:00','12:50:00','false',95 ,3 ),
(1222,2,2,6,9,'20:00:00','01:45:00','true',95 ,3 ),
(1223,2,2,6,9,'21:30:00','03:15:00','true',95 ,3 );




INSERT INTO voyages (id,type_id,societe_id,ville_depart,ville_arrive,depart_time,arrive_time,nextday,tarif,classe) VALUES
(1224,1,1,6,15,'01:45:00','04:11:00','false',70 ,2 ),
(1225,1,1,6,15,'02:10:00','04:41:00','false',70 ,2 ),
(1226,1,1,6,15,'02:30:00','05:01:00','false',70 ,2 ),
(1227,1,1,6,15,'04:50:00','07:06:00','false',70 ,2 ),
(1228,1,1,6,15,'05:50:00','07:46:00','false',70 ,2 ),
(1229,1,1,6,15,'06:50:00','09:06:00','false',70 ,2 ),
(1230,1,1,6,15,'07:50:00','09:46:00','false',70 ,2 ),
(1231,1,1,6,15,'08:50:00','11:06:00','false',70 ,2 ),
(1232,1,1,6,15,'09:50:00','11:46:00','false',70 ,2 ),
(1233,1,1,6,15,'10:50:00','13:06:00','false',70 ,2 ),
(1234,1,1,6,15,'11:50:00','13:46:00','false',70 ,2 ),
(1235,1,1,6,15,'12:50:00','15:06:00','false',70 ,2 ),
(1236,1,1,6,15,'13:50:00','15:46:00','false',70 ,2 ),
(1237,1,1,6,15,'14:50:00','17:06:00','false',70 ,2 ),
(1238,1,1,6,15,'15:50:00','17:46:00','false',70 ,2 ),
(1239,1,1,6,15,'16:50:00','19:06:00','false',70 ,2 ),
(1240,1,1,6,15,'17:50:00','19:46:00','false',70 ,2 ),
(1241,1,1,6,15,'18:50:00','21:02:00','false',70 ,2 ),
(1242,1,1,6,15,'20:50:00','23:02:00','false',70 ,2 );




INSERT INTO voyages (id,type_id,societe_id,ville_depart,ville_arrive,depart_time,arrive_time,nextday,tarif,classe) VALUES
(1243,2,2,6,16,'07:00:00','09:45:00','false',55 ,3 ),
(1244,2,2,6,16,'20:00:00','22:45:00','false',55 ,3 ),
(1245,2,2,6,16,'21:30:00','00:15:00','true',55 ,3 );




INSERT INTO voyages (id,type_id,societe_id,ville_depart,ville_arrive,depart_time,arrive_time,nextday,tarif,classe) VALUES
(1246,1,1,6,15,'01:45:00','09:20:00','false',145 ,2 );



INSERT INTO voyages (id,type_id,societe_id,ville_depart,ville_arrive,depart_time,arrive_time,nextday,tarif,classe) VALUES
(1247,1,1,6,19,'01:45:00','05:57:00','false',98 ,2 ),
(1248,1,1,6,19,'02:50:00','09:32:00','false',98 ,2 ),
(1249,1,1,6,19,'10:55:00','17:02:00','false',98 ,2 ),
(1250,1,1,6,19,'17:15:00','23:12:00','false',98 ,2 );


INSERT INTO voyages (id,type_id,societe_id,ville_depart,ville_arrive,depart_time,arrive_time,nextday,tarif,classe) VALUES
(1251,2,2,6,19,'02:44:00','07:29:00','false',115 ,3 ),
(1252,2,2,6,19,'04:00:00','08:00:00','false',110 ,3 );



INSERT INTO voyages (id,type_id,societe_id,ville_depart,ville_arrive,depart_time,arrive_time,nextday,tarif,classe) VALUES
(1253,1,1,6,20,'02:50:00','08:10:00','false',110 ,2 ),
(1254,1,1,6,20,'10:55:00','16:35:00','false',110 ,2 ),
(1255,1,1,6,20,'15:25:00','21:00:00','false',110 ,2 );


INSERT INTO voyages (id,type_id,societe_id,ville_depart,ville_arrive,depart_time,arrive_time,nextday,tarif,classe) VALUES
(1256,2,2,6,20,'02:00:00','06:15:00','false',115 ,3 ),
(1257,2,2,6,20,'05:30:00','10:00:00','false',115 ,3 ),
(1258,2,2,6,20,'12:45:00','18:30:00','false',120 ,3 );


INSERT INTO voyages (id,type_id,societe_id,ville_depart,ville_arrive,depart_time,arrive_time,nextday,tarif,classe) VALUES
(1259,1,1,6,24,'01:45:00','08:44:00','false',127 ,2 ),
(1260,1,1,6,24,'02:10:00','08:44:00','false',127 ,2 ),
(1261,1,1,6,24,'07:10:00','13:44:00','false',127 ,2 );



INSERT INTO voyages (id,type_id,societe_id,ville_depart,ville_arrive,depart_time,arrive_time,nextday,tarif,classe) VALUES
(1262,2,2,6,24,'08:00:00','13:00:00','false',100 ,3 ),
(1263,2,2,6,24,'10:30:00','17:30:00','false',100 ,3 ),
(1264,2,2,6,24,'11:00:00','16:45:00','false',100 ,3 ),
(1265,2,2,6,24,'23:45:00','05:00:00','true',100 ,3 );


INSERT INTO voyages (id,type_id,societe_id,ville_depart,ville_arrive,depart_time,arrive_time,nextday,tarif,classe) VALUES
(400,1,1,2,1,'03:15:00','11:59:00','false',220 ,2 ),
(401,1,1,2,1,'05:45:00','14:29:00','false',220 ,2 ),
(402,1,1,2,1,'07:45:00','16:29:00','false',220 ,2 ),
(403,1,1,2,1,'09:45:00','18:29:00','false',220 ,2 ),
(404,1,1,2,1,'11:45:00','20:00:00','false',220 ,2 ),
(405,1,1,2,1,'13:45:00','22:29:00','false',220 ,2 ),
(406,1,1,2,1,'15:45:00','00:31:00','true',220 , 2),
(407,1,1,2,1,'17:45:00','02:29:00','true',220 , 2),
(408,1,1,2,1,'19:45:00','04:29:00','true',220 , 2);

INSERT INTO voyages (id,type_id,societe_id,ville_depart,ville_arrive,depart_time,arrive_time,nextday,tarif,classe) VALUES
(409,2,2,2,1,'12:00:00','20:30:00','false',250 ,3 ),
(410,2,2,2,1,'21:15:00','06:10:00','true',230 ,3 );



INSERT INTO voyages (id,type_id,societe_id,ville_depart,ville_arrive,depart_time,arrive_time,nextday,tarif,classe) VALUES
(411,1,1,2,3,'03:15:00','08:00:00','false',120 ,2 ),
(412,1,1,2,3,'05:45:00','10:00:00','false',120 ,2 ),
(413,1,1,2,3,'07:45:00','12:00:00','false',120 ,2 ),
(414,1,1,2,3,'09:45:00','14:00:00','false',120 ,2 ),
(415,1,1,2,3,'11:45:00','16:00:00','false',120 ,2 ),
(416,1,1,2,3,'13:45:00','18:00:00','false',120 ,2 ),
(417,1,1,2,3,'15:45:00','20:00:00','false',120 ,2 ),
(418,1,1,2,3,'17:45:00','22:00:00','false',120 ,2 ),
(419,1,1,2,3,'19:45:00','23:59:00','false',120 ,2 );



INSERT INTO voyages (id,type_id,societe_id,ville_depart,ville_arrive,depart_time,arrive_time,nextday,tarif,classe) VALUES
(429,2,2,2,3,'12:00:00','16:45:00','false',150 ,3 ),
(430,2,2,2,3,'21:15:00','01:30:00','true',130 ,3 );



INSERT INTO voyages (id,type_id,societe_id,ville_depart,ville_arrive,depart_time,arrive_time,nextday,tarif,classe) VALUES
(431,1,1,2,4,'03:15:00','04:30:00','false',35 ,2 ),
(432,1,1,2,4,'05:15:00','06:15:00','false',35 ,2 ),
(433,1,1,2,4,'05:30:00','06:30:00','false',35 ,2 ),
(434,1,1,2,4,'05:45:00','06:45:00','false',35 ,2 ),
(437,1,1,2,4,'07:45:00','08:45:00','false',39 ,2 ),
(438,1,1,2,4,'08:00:00','09:05:00','false',39 ,2 ),
(504,1,1,2,4,'08:15:00','09:10:00','false',39 ,2 ),
(440,1,1,2,4,'09:00:00','10:05:00','false',39 ,2 ),
(441,1,1,2,4,'09:15:00','10:20:00','false',39 ,2 ),
(442,1,1,2,4,'09:45:00','10:45:00','false',35 ,2 ),
(443,1,1,2,4,'10:00:00','11:05:00','false',39 ,2 ),
(444,1,1,2,4,'10:15:00','11:10:00','false',35 ,2 ),
(445,1,1,2,4,'11:00:00','12:05:00','false',39 ,2 ),
(446,1,1,2,4,'11:15:00','12:20:00','false',35 ,2 ),
(447,1,1,2,4,'11:45:00','12:45:00','false',35 ,2 ),
(448,1,1,2,4,'12:00:00','13:05:00','false',39 ,2 ),
(449,1,1,2,4,'12:15:00','13:10:00','false',35 ,2 ),
(450,1,1,2,4,'13:00:00','14:05:00','false',39 ,2 ),
(451,1,1,2,4,'13:15:00','14:20:00','false',35 ,2 ),
(452,1,1,2,4,'13:45:00','14:45:00','false',35 ,2 ),
(453,1,1,2,4,'14:00:00','15:05:00','false',39 ,2 ),
(454,1,1,2,4,'14:15:00','15:10:00','false',35 ,2 ),
(435,1,1,2,4,'15:00:00','16:05:00','false',39 ,2 ),
(456,1,1,2,4,'15:15:00','16:20:00','false',35 ,2 ),
(457,1,1,2,4,'15:45:00','16:45:00','false',39 ,2 ),
(458,1,1,2,4,'16:00:00','17:05:00','false',39 ,2 ),
(459,1,1,2,4,'16:15:00','17:10:00','false',39 ,2 ),
(460,1,1,2,4,'17:00:00','18:05:00','false',39 ,2 ),
(461,1,1,2,4,'17:15:00','18:20:00','false',39 ,2 ),
(462,1,1,2,4,'17:45:00','18:45:00','false',39 ,2 ),
(463,1,1,2,4,'18:00:00','19:05:00','false',39 ,2 ),
(464,1,1,2,4,'18:15:00','19:10:00','false',39 ,2 ),
(439,1,1,2,4,'19:00:00','20:05:00','false',39 ,2 ),
(466,1,1,2,4,'19:15:00','20:20:00','false',39 ,2 ),
(467,1,1,2,4,'19:45:00','20:45:00','false',35 ,2 ),
(468,1,1,2,4,'20:00:00','21:05:00','false',39 ,2 ),
(469,1,1,2,4,'20:15:00','21:10:00','false',35 ,2 ),
(470,1,1,2,4,'21:00:00','22:05:00','false',39 ,2 ),
(471,1,1,2,4,'21:15:00','22:20:00','false',35 ,2 ),
(472,1,1,2,4,'21:45:00','22:45:00','false',35 ,2 ),
(473,1,1,2,4,'23:45:00','00:45:00','true',35 ,2 );



INSERT INTO voyages (id,type_id,societe_id,ville_depart,ville_arrive,depart_time,arrive_time,nextday,tarif,classe) VALUES
(474,2,2,2,4,'03:45:00','05:15:00','false',35 ,3 ),
(475,2,2,2,4,'04:15:00','05:45:00','false',35 ,3 ),
(476,2,2,2,4,'04:35:00','06:00:00','false',35 ,3 ),
(477,2,2,2,4,'05:00:00','06:15:00','false',35 ,3 ),
(478,2,2,2,4,'05:10:00','06:30:00','false',60 ,3 ),
(479,2,2,2,4,'05:15:00','06:45:00','false',35 ,3 ),
(480,2,2,2,4,'05:30:00','07:00:00','false',35 ,3 ),
(481,2,2,2,4,'07:15:00','08:30:00','false',35 ,3 ),
(482,2,2,2,4,'10:25:00','12:00:00','false',35 ,3 ),
(483,2,2,2,4,'11:30:00','13:15:00','false',35 ,3 ),
(484,2,2,2,4,'11:40:00','13:00:00','false',35 ,3 ),
(485,2,2,2,4,'12:30:00','14:00:00','false',35 ,3 ),
(486,2,2,2,4,'13:00:00','14:30:00','false',35 ,3 ),
(487,2,2,2,4,'15:00:00','16:30:00','false',35 ,3 ),
(488,2,2,2,4,'16:15:00','17:45:00','false',35 ,3 ),
(489,2,2,2,4,'16:30:00','18:00:00','false',35 ,3 ),
(490,2,2,2,4,'17:10:00','18:45:00','false',35 ,3 ),
(491,2,2,2,4,'18:05:00','20:20:00','false',35 ,3 ),
(492,2,2,2,4,'20:10:00','21:30:00','false',35 ,3 ),
(493,2,2,2,4,'21:15:00','23:25:00','false',35 ,3 );





INSERT INTO voyages (id,type_id,societe_id,ville_depart,ville_arrive,depart_time,arrive_time,nextday,tarif,classe) VALUES
(494,1,1,2,5,'01:57:00','07:00:00','false',95 ,2 ),
(495,1,1,2,5,'06:47:00','10:30:00','false',95 ,2 ),
(496,1,1,2,5,'08:47:00','12:30:00','false',95 ,2 ),
(497,1,1,2,5,'09:17:00','14:55:00','false',95 ,2 ),
(498,1,1,2,5,'10:47:00','14:30:00','false',95 ,2 ),
(499,1,1,2,5,'12:47:00','16:30:00','false',95 ,2 ),
(501,1,1,2,5,'14:47:00','18:30:00','false',95 ,2 ),
(502,1,1,2,5,'16:47:00','20:30:00','false',95 ,2 ),
(503,1,1,2,5,'18:47:00','22:25:00','false',95 ,2 );





INSERT INTO voyages (id,type_id,societe_id,ville_depart,ville_arrive,depart_time,arrive_time,nextday,tarif,classe) VALUES
(513,2,2,2,5,'01:10:00','05:00:00','false',110 ,3 ),
(514,2,2,2,5,'07:30:00','17:00:00','false',110 ,3 ),
(515,2,2,2,5,'12:30:00','16:30:00','false',110 ,3 ),
(516,2,2,2,5,'15:30:00','19:30:00','false',110 ,3 );



INSERT INTO voyages (id,type_id,societe_id,ville_depart,ville_arrive,depart_time,arrive_time,nextday,tarif,classe) VALUES
(517,1,1,2,6,'06:12:00','08:35:00','false',80 ,2 ),
(518,1,1,2,6,'07:17:00','10:10:00','false',80 ,2 ),
(519,1,1,2,6,'08:12:00','10:35:00','false',80 ,2 ),
(520,1,1,2,6,'09:17:00','12:10:00','false',80 ,2 ),
(521,1,1,2,6,'10:12:00','12:35:00','false',80 ,2 ),
(522,1,1,2,6,'11:17:00','14:10:00','false',80 ,2 ),
(523,1,1,2,6,'12:12:00','14:35:00','false',80 ,2 ),
(524,1,1,2,6,'13:17:00','16:10:00','false',80 ,2 ),
(525,1,1,2,6,'14:12:00','16:35:00','false',80 ,2 ),
(526,1,1,2,6,'15:17:00','18:10:00','false',80 ,2 ),
(527,1,1,2,6,'16:12:00','18:35:00','false',80 ,2 ),
(528,1,1,2,6,'17:17:00','20:10:00','false',80 ,2 ),
(529,1,1,2,6,'18:12:00','20:35:00','false',80 ,2 ),
(530,1,1,2,6,'19:17:00','22:10:00','false',80 ,2 ),
(531,1,1,2,6,'20:48:00','23:40:00','false',80 ,2 ),
(532,1,1,2,6,'21:17:00','00:10:00','true',80 ,2 ),
(533,1,1,2,6,'23:17:00','02:10:00','true',80 ,2 ),
(534,1,1,2,6,'23:47:00','02:30:00','true',80 ,2 );

INSERT INTO voyages (id,type_id,societe_id,ville_depart,ville_arrive,depart_time,arrive_time,nextday,tarif,classe) VALUES
(553,2,2,2,6,'14:55:00','18:30:00','false',75 ,3 ),
(554,2,2,2,6,'09:00:00','12:30:00','false',75 ,3 ),
(555,2,2,2,6,'13:30:00','16:30:00','false',75 ,3 ),
(556,2,2,2,6,'15:45:00','19:00:00','false',70 ,3 ),
(557,2,2,2,6,'22:00:00','01:25:00','true',70 ,3 ),
(558,2,2,2,6,'23:00:00','01:45:00','true',70 ,3 ),
(559,2,2,2,6,'23:29:00','02:29:00','true',75 ,3 );



INSERT INTO voyages (id,type_id,societe_id,ville_depart,ville_arrive,depart_time,arrive_time,nextday,tarif,classe) VALUES
(560,1,1,2,7,'06:12:00','08:01:00','false',65 ,2 ),
(561,1,1,2,7,'07:17:00','09:32:00','false',65 ,2 ),
(562,1,1,2,7,'08:12:00','10:05:00','false',65 ,2 ),
(563,1,1,2,7,'09:17:00','11:32:00','false',65 ,2 ),
(564,1,1,2,7,'10:12:00','12:01:00','false',65 ,2 ),
(565,1,1,2,7,'11:17:00','13:32:00','false',65 ,2 ),
(566,1,1,2,7,'12:12:00','14:01:00','false',65 ,2 ),
(567,1,1,2,7,'13:17:00','15:32:00','false',65 ,2 ),
(568,1,1,2,7,'14:12:00','16:01:00','false',65 ,2 ),
(569,1,1,2,7,'15:17:00','17:32:00','false',65 ,2 ),
(570,1,1,2,7,'16:12:00','18:01:00','false',65 ,2 ),
(571,1,1,2,7,'17:17:00','19:32:00','false',65 ,2 ),
(572,1,1,2,7,'18:12:00','20:05:00','false',65 ,2 ),
(573,1,1,2,7,'19:17:00','21:31:00','false',65 ,2 ),
(574,1,1,2,7,'20:48:00','23:02:00','false',65 ,2 ),
(575,1,1,2,7,'21:17:00','23:29:00','false',65 ,2 ),
(576,1,1,2,7,'23:17:00','01:29:00','true',65 ,2 ),
(577,1,1,2,7,'23:47:00','01:55:00','true',65 ,2 );




INSERT INTO voyages (id,type_id,societe_id,ville_depart,ville_arrive,depart_time,arrive_time,nextday,tarif,classe) VALUES
(596,2,2,2,7,'14:55:00','17:25:00','false',60 ,3 ),
(597,2,2,2,7,'09:00:00','11:20:00','false',60 ,3 ),
(598,2,2,2,7,'15:45:00','17:45:00','false',55 ,3 ),
(599,2,2,2,7,'22:00:00','00:15:00','true',55 ,3 ),
(600,2,2,2,7,'23:30:00','01:30:00','true',55 ,3 );



INSERT INTO voyages (id,type_id,societe_id,ville_depart,ville_arrive,depart_time,arrive_time,nextday,tarif,classe) VALUES
(601,2,2,2,8,'13:00:00','16:15:00','false',95 ,3 );



INSERT INTO voyages (id,type_id,societe_id,ville_depart,ville_arrive,depart_time,arrive_time,nextday,tarif,classe) VALUES
(602,1,1,2,9,'05:15:00','11:29:00','false',105 ,2 ),
(603,1,1,2,9,'11:15:00','17:30:00','false',105 ,2 );



INSERT INTO voyages (id,type_id,societe_id,ville_depart,ville_arrive,depart_time,arrive_time,nextday,tarif,classe) VALUES
(604,1,1,2,10,'09:45:00','10:59:00','true',408 ,2 ),
(605,1,1,2,10,'17:45:00','17:59:00','true',408 ,2 );

INSERT INTO voyages (id,type_id,societe_id,ville_depart,ville_arrive,depart_time,arrive_time,nextday,tarif,classe) VALUES
(606,2,2,2,10,'12:00:00','10:00:00','true',510 ,3 );



INSERT INTO voyages (id,type_id,societe_id,ville_depart,ville_arrive,depart_time,arrive_time,nextday,tarif,classe) VALUES
(607,1,1,2,11,'09:45:00','15:59:00','true',590 ,2 ),
(608,1,1,2,11,'17:45:00','22:00:00','true',590 ,2 );


INSERT INTO voyages (id,type_id,societe_id,ville_depart,ville_arrive,depart_time,arrive_time,nextday,tarif,classe) VALUES
(609,2,2,2,11,'12:00:00','15:30:00','true',610 ,3 );

INSERT INTO voyages (id,type_id,societe_id,ville_depart,ville_arrive,depart_time,arrive_time,nextday,tarif,classe) VALUES
(610,1,1,2,12,'03:15:00','07:50:00','false',70 , 2),
(611,1,1,2,12,'05:45:00','09:50:00','false',70 , 2),
(612,1,1,2,12,'06:30:00','09:50:00','false',70 , 2),
(613,1,1,2,12,'07:00:00','09:50:00','false',70 , 2),
(614,1,1,2,12,'07:45:00','10:45:00','false',70 , 2),
(615,1,1,2,12,'08:00:00','10:45:00','false',70 , 2),
(616,1,1,2,12,'09:00:00','11:50:00','false',70 , 2),
(617,1,1,2,12,'09:15:00','11:50:00','false',70 , 2),
(618,1,1,2,12,'09:45:00','13:50:00','false',70 ,2 ),
(619,1,1,2,12,'11:00:00','13:50:00','false',70 ,2 ),
(620,1,1,2,12,'11:15:00','13:50:00','false',70 ,2 ),
(621,1,1,2,12,'13:00:00','15:50:00','false',70 ,2 ),
(622,1,1,2,12,'13:15:00','15:50:00','false',70 ,2 ),
(623,1,1,2,12,'15:00:00','17:50:00','false',70 ,2 ),
(624,1,1,2,12,'15:15:00','18:50:00','false',70 ,2 ),
(625,1,1,2,12,'15:45:00','18:50:00','false',70 ,2 ),
(626,1,1,2,12,'16:00:00','18:50:00','false',70 ,2 ),
(627,1,1,2,12,'17:15:00','20:50:00','false',70 ,2 ),
(628,1,1,2,12,'17:45:00','20:50:00','false',70 ,2 ),
(629,1,1,2,12,'18:00:00','20:50:00','false',70 ,2 );


INSERT INTO voyages (id,type_id,societe_id,ville_depart,ville_arrive,depart_time,arrive_time,nextday,tarif,classe) VALUES
(630,2,2,2,13,'23:30:00','07:45:00','true',170 ,3 );


INSERT INTO voyages (id,type_id,societe_id,ville_depart,ville_arrive,depart_time,arrive_time,nextday,tarif,classe) VALUES
(631,1,1,2,14,'05:45:00','13:45:00','false',190 ,2 ),
(632,1,1,2,14,'09:45:00','17:45:00','false',190 ,2 ),
(633,1,1,2,14,'11:45:00','19:59:00','false',190 ,2 ),
(634,1,1,2,14,'13:45:00','21:59:00','false',190 ,2 );


INSERT INTO voyages (id,type_id,societe_id,ville_depart,ville_arrive,depart_time,arrive_time,nextday,tarif,classe) VALUES
(635,1,1,2,15,'01:57:00','02:29:00','false',10 ,2 ),
(636,1,1,2,15,'06:12:00','06:35:00','false',10 ,2 ),
(637,1,1,2,15,'06:47:00','07:14:00','false',15 ,2 ),
(638,1,1,2,15,'07:17:00','07:46:00','false',15 ,2 ),
(639,1,1,2,15,'07:42:00','08:09:00','false',15 ,2 ),
(640,1,1,2,15,'08:12:00','08:35:00','false',15 ,2 ),
(641,1,1,2,15,'08:47:00','09:14:00','false',15 ,2 ),
(642,1,1,2,15,'09:02:00','09:32:00','false',15 ,2 ),
(643,1,1,2,15,'09:17:00','09:46:00','false',15 ,2 ),
(644,1,1,2,15,'09:57:00','10:26:00','false',15 ,2 ),
(645,1,1,2,15,'10:12:00','10:35:00','false',15 ,2 ),
(646,1,1,2,15,'10:39:00','11:03:00','false',15 ,2 ),
(647,1,1,2,15,'10:47:00','11:14:00','false',15 ,2 ),
(648,1,1,2,15,'11:17:00','11:46:00','false',15 ,2 ),
(649,1,1,2,15,'11:42:00','12:09:00','false',15 ,2 ),
(650,1,1,2,15,'11:57:00','12:26:00','false',15 ,2 ),
(651,1,1,2,15,'12:12:00','12:35:00','false',15 ,2 ),
(652,1,1,2,15,'12:32:00','13:03:00','false',15 ,2 ),
(653,1,1,2,15,'12:47:00','13:14:00','false',15 ,2 ),
(654,1,1,2,15,'13:02:00','13:32:00','false',15 ,2 ),
(655,1,1,2,15,'13:17:00','13:46:00','false',15 ,2 ),
(656,1,1,2,15,'13:42:00','14:12:00','false',15 ,2 ),
(657,1,1,2,15,'14:12:00','14:35:00','false',15 ,2 ),
(658,1,1,2,15,'14:32:00','15:03:00','false',15 ,2 ),
(659,1,1,2,15,'14:47:00','15:14:00','false',15 ,2 ),
(660,1,1,2,15,'15:02:00','15:32:00','false',15 ,2 ),
(661,1,1,2,15,'15:17:00','16:26:00','false',15 ,2 ),
(662,1,1,2,15,'15:42:00','16:09:00','false',15 ,2 ),
(663,1,1,2,15,'15:57:00','16:26:00','false',15 ,2 ),
(664,1,1,2,15,'16:12:00','16:35:00','false',15 ,2 ),
(665,1,1,2,15,'16:32:00','17:03:00','false',15 ,2 ),
(666,1,1,2,15,'16:47:00','17:14:00','false',15 ,2 ),
(667,1,1,2,15,'17:02:00','17:29:00','false',15 ,2 ),
(668,1,1,2,15,'17:17:00','17:46:00','false',15 ,2 ),
(669,1,1,2,15,'17:42:00','18:09:00','false',15 ,2 ),
(670,1,1,2,15,'17:57:00','18:26:00','false',15 ,2 ),
(671,1,1,2,15,'18:12:00','18:35:00','false',15 ,2 ),
(672,1,1,2,15,'18:37:00','19:03:00','false',15 ,2 ),
(673,1,1,2,15,'18:47:00','19:14:00','false',15 ,2 ),
(674,1,1,2,15,'19:02:00','19:32:00','false',15 ,2 ),
(675,1,1,2,15,'19:17:00','19:46:00','false',15 ,2 ),
(676,1,1,2,15,'19:42:00','20:09:00','false',15 ,2 ),
(677,1,1,2,15,'20:02:00','20:32:00','false',15 ,2 ),
(678,1,1,2,15,'21:17:00','21:46:00','false',10 ,2 ),
(679,1,1,2,15,'21:42:00','22:12:00','false',10 ,2 ),
(680,1,1,2,15,'22:32:00','23:02:00','false',10 ,2 ),
(681,1,1,2,15,'23:07:00','23:34:00','false',10 ,2 ),
(682,1,1,2,15,'23:17:00','23:49:00','false',10 ,2 ),
(683,1,1,2,15,'23:47:00','00:18:00','false',10 ,2 );




INSERT INTO voyages (id,type_id,societe_id,ville_depart,ville_arrive,depart_time,arrive_time,nextday,tarif,classe) VALUES
(684,1,1,2,17,'05:15:00','09:20:00','false',70 ,2 ),
(685,1,1,2,17,'11:15:00','15:20:00','false',70 ,2 ),
(686,1,1,2,17,'17:15:00','21:20:00','false',70 ,2 );



INSERT INTO voyages (id,type_id,societe_id,ville_depart,ville_arrive,depart_time,arrive_time,nextday,tarif,classe) VALUES
(687,1,1,2,18,'09:45:00','08:29:00','true',455 ,2 ),
(688,1,1,2,18,'11:45:00','08:30:00','true',455 ,2 ),
(689,1,1,2,18,'13:45:00','10:29:00','true',455 ,2 ),
(690,1,1,2,18,'17:45:00','14:59:00','true',455 ,2 );


INSERT INTO voyages (id,type_id,societe_id,ville_depart,ville_arrive,depart_time,arrive_time,nextday,tarif,classe) VALUES
(691,2,2,2,18,'12:00:00','07:30:00','true',495 ,3 );



INSERT INTO voyages (id,type_id,societe_id,ville_depart,ville_arrive,depart_time,arrive_time,nextday,tarif,classe) VALUES
(692,1,1,2,19,'07:17:00','17:02:00','false',160 ,2 ),
(693,1,1,2,19,'13:17:00','23:12:00','false',160 ,2 ),
(694,1,1,2,19,'14:12:00','23:12:00','false',160 ,2 ),
(695,1,1,2,19,'20:48:00','05:57:00','true',160 ,2 ),
(696,1,1,2,19,'23:47:00','09:32:00','true',160 ,2 );



INSERT INTO voyages (id,type_id,societe_id,ville_depart,ville_arrive,depart_time,arrive_time,nextday,tarif,classe) VALUES
(702,2,2,2,19,'23:29:00','07:30:00','true',170 ,3 );




INSERT INTO voyages (id,type_id,societe_id,ville_depart,ville_arrive,depart_time,arrive_time,nextday,tarif,classe) VALUES
(703,1,1,2,20,'07:17:00','16:35:00','false',180 ,2 ),
(704,1,1,2,20,'11:17:00','21:00:00','false',180 ,2 ),
(705,1,1,2,20,'12:12:00','21:00:00','false',180 ,2 ),
(706,1,1,2,20,'23:47:00','08:10:00','false',180 ,2 );


INSERT INTO voyages (id,type_id,societe_id,ville_depart,ville_arrive,depart_time,arrive_time,nextday,tarif,classe) VALUES
(711,2,2,2,20,'09:00:00','18:30:00','false',185 ,3 ),
(712,2,2,2,20,'23:00:00','06:15:00','true',180 ,3 ),
(713,2,2,2,20,'23:30:00','06:30:00','true',250 ,3 );



INSERT INTO voyages (id,type_id,societe_id,ville_depart,ville_arrive,depart_time,arrive_time,nextday,tarif,classe) VALUES
(714,1,1,2,24,'01:57:00','08:44:00','false',123 ,2 ),
(715,1,1,2,24,'08:47:00','13:44:00','false',123 ,2 ),
(716,1,1,2,24,'12:47:00','17:44:00','false',123 ,2 ),
(717,1,1,2,24,'18:47:00','23:45:00','false',123 ,2 );





INSERT INTO voyages (id,type_id,societe_id,ville_depart,ville_arrive,depart_time,arrive_time,nextday,tarif,classe) VALUES
(722,2,2,2,24,'01:10:00','05:25:00','false',115 ,3 ),
(723,2,2,2,24,'08:45:00','13:00:00','false',115 ,3 ),
(724,2,2,2,24,'11:00:00','16:00:00','false',115 ,3 ),
(725,2,2,2,24,'13:30:00','18:30:00','false',115 ,3 ),
(728,2,2,2,24,'17:30:00','22:30:00','false',115 ,3 );




INSERT INTO voyages (id,type_id,societe_id,ville_depart,ville_arrive,depart_time,arrive_time,nextday,tarif,classe) VALUES
(1000,1,1,5,1,'05:35:00','18:29:00','false',305 ,2 ),
(1001,1,1,5,1,'07:35:00','20:00:00','false',355 ,2 ),
(1002,1,1,5,1,'08:25:00','22:29:00','false',305 ,2 ),
(1003,1,1,5,1,'09:35:00','22:29:00','false',305 ,2 ),
(1004,1,1,5,1,'10:40:00','00:31:00','true',305 ,2 ),
(1005,1,1,5,1,'11:35:00','00:31:00','true',305 ,2 ),
(1006,1,1,5,1,'13:05:00','02:29:00','true',305 ,2 ),
(1007,1,1,5,1,'15:35:00','04:29:00','true',305 ,2 ),
(1008,1,1,5,1,'21:35:00','11:59:00','true',305 ,2 );



INSERT INTO voyages (id,type_id,societe_id,ville_depart,ville_arrive,depart_time,arrive_time,nextday,tarif,classe) VALUES
(1009,1,1,5,2,'05:35:00','09:10:00','false',95 ,2 ),
(1010,1,1,5,2,'07:35:00','11:09:00','false',95 ,2 ),
(1011,1,1,5,2,'08:25:00','13:42:00','false',95 ,2 ),
(1012,1,1,5,2,'09:35:00','13:09:00','false',95 ,2 ),
(1013,1,1,5,2,'10:40:00','15:42:00','false',95 ,2 ),
(1014,1,1,5,2,'11:35:00','15:09:00','false',95 ,2 ),
(1015,1,1,5,2,'13:35:00','17:09:00','false',95 ,2 ),
(1016,1,1,5,2,'15:35:00','19:09:00','false',95 ,2 ),
(1017,1,1,5,2,'17:35:00','21:09:00','false',95 ,2 ),
(1018,1,1,5,2,'21:35:00','03:07:00','true',95 ,2 );


INSERT INTO voyages (id,type_id,societe_id,ville_depart,ville_arrive,depart_time,arrive_time,nextday,tarif,classe) VALUES
(1019,2,2,5,2,'11:00:00','14:45:00','false',110 ,3 ),
(1020,2,2,5,2,'14:00:00','17:50:00','false',110 ,3 ),
(1021,2,2,5,2,'23:45:00','03:30:00','true',110 ,3 );



INSERT INTO voyages (id,type_id,societe_id,ville_depart,ville_arrive,depart_time,arrive_time,nextday,tarif,classe) VALUES
(1022,1,1,5,3,'05:35:00','14:00:00','false',95 ,2 ),
(1023,1,1,5,3,'07:35:00','16:00:00','false',95 ,2 ),
(1024,1,1,5,3,'08:25:00','18:00:00','false',95 ,2 ),
(1025,1,1,5,3,'09:35:00','18:00:00','false',95 ,2 ),
(1026,1,1,5,3,'10:40:00','20:00:00','false',95 ,2 ),
(1027,1,1,5,3,'11:35:00','20:00:00','false',95 ,2 ),
(1028,1,1,5,3,'13:35:00','22:00:00','false',95 ,2 ),
(1029,1,1,5,3,'15:35:00','23:59:00','false',95 ,2 ),
(1030,1,1,5,3,'17:35:00','23:59:00','false',95 ,2 ),
(1031,1,1,5,3,'21:35:00','08:00:00','true',95 ,2 );



INSERT INTO voyages (id,type_id,societe_id,ville_depart,ville_arrive,depart_time,arrive_time,nextday,tarif,classe) VALUES
(1032,1,1,5,4,'05:35:00','10:20:00','false',125 ,2 ),
(1033,1,1,5,4,'07:35:00','12:20:00','false',125 ,2 ),
(1034,1,1,5,4,'08:25:00','14:45:00','false',125 ,2 ),
(1035,1,1,5,4,'09:35:00','14:20:00','false',125 ,2 ),
(1036,1,1,5,4,'10:40:00','16:45:00','false',125 ,2 ),
(1037,1,1,5,4,'11:35:00','16:20:00','false',125 ,2 ),
(1038,1,1,5,4,'13:35:00','18:20:00','false',125 ,2 ),
(1039,1,1,5,4,'15:35:00','20:20:00','false',125 ,2 ),
(1040,1,1,5,4,'17:35:00','22:20:00','false',125 ,2 ),
(1041,1,1,5,4,'21:35:00','04:30:00','true',125 ,2 );


INSERT INTO voyages (id,type_id,societe_id,ville_depart,ville_arrive,depart_time,arrive_time,nextday,tarif,classe) VALUES
(1042,2,2,5,4,'11:00:00','16:30:00','false',145 ,3 ),
(1043,2,2,5,4,'14:00:00','20:20:00','false',140 ,3 ),
(1044,2,2,5,4,'23:45:00','05:15:00','true',145 ,3 );



INSERT INTO voyages (id,type_id,societe_id,ville_depart,ville_arrive,depart_time,arrive_time,nextday,tarif,classe) VALUES
(1045,1,1,5,6,'08:25:00','13:00:00','false',105 ,2 ),
(1046,1,1,5,6,'10:40:00','15:00:00','false',105 ,2 ),
(1047,1,1,5,6,'13:05:00','17:35:00','false',105 ,2 ),
(1048,1,1,5,6,'17:35:00','21:50:00','false',105 ,2 ),
(1049,1,1,5,6,'21:35:00','02:10:00','true',105 ,2 );


INSERT INTO voyages (id,type_id,societe_id,ville_depart,ville_arrive,depart_time,arrive_time,nextday,tarif,classe) VALUES
(1050,2,2,5,6,'12:15:00','18:30:00','false',115 ,3 ),
(1051,2,2,5,6,'15:00:00','21:00:00','false',115 ,3 ),
(1052,2,2,5,6,'21:30:00','05:15:00','false',115 ,3 ),
(1053,2,2,5,6,'22:00:00','03:50:00','false',115 ,3 ),
(1054,2,2,5,6,'23:45:00','05:00:00','false',115 ,3 );



INSERT INTO voyages (id,type_id,societe_id,ville_depart,ville_arrive,depart_time,arrive_time,nextday,tarif,classe) VALUES
(1055,1,1,5,7,'08:25:00','12:19:00','false',85 ,2 ),
(1056,1,1,5,7,'10:40:00','14:19:00','false',85 ,2 ),
(1057,1,1,5,7,'13:05:00','16:55:00','false',85 ,2 ),
(1058,1,1,5,7,'17:35:00','21:09:00','false',85 ,2 ),
(1059,1,1,5,7,'21:35:00','01:29:00','true',85 ,2 );

INSERT INTO voyages (id,type_id,societe_id,ville_depart,ville_arrive,depart_time,arrive_time,nextday,tarif,classe) VALUES
(1060,2,2,5,7,'15:00:00','19:55:00','false',90 ,3 ),
(1061,2,2,5,7,'21:30:00','04:05:00','false',90 ,3 ),
(1062,2,2,5,7,'22:00:00','03:00:00','true',90 ,3 ),
(1063,2,2,5,7,'23:45:00','03:55:00','true',90 ,3 );


INSERT INTO voyages (id,type_id,societe_id,ville_depart,ville_arrive,depart_time,arrive_time,nextday,tarif,classe) VALUES
(1064,1,1,5,9,'07:35:00','17:30:00','false',195 ,2 );


INSERT INTO voyages (id,type_id,societe_id,ville_depart,ville_arrive,depart_time,arrive_time,nextday,tarif,classe) VALUES
(1065,1,1,5,15,'05:35:00','08:36:00','false',85 ,2 ),
(1066,1,1,5,15,'07:35:00','10:35:00','false',85 ,2 ),
(1067,1,1,5,15,'08:25:00','13:06:00','false',85 ,2 ),
(1068,1,1,5,15,'09:35:00','12:35:00','false',85 ,2 ),
(1069,1,1,5,15,'10:40:00','15:06:00','false',85 ,2 ),
(1070,1,1,5,15,'11:35:00','14:35:00','false',85 ,2 ),
(1071,1,1,5,15,'13:35:00','16:35:00','false',85 ,2 ),
(1072,1,1,5,15,'15:35:00','18:35:00','false',85 ,2 ),
(1073,1,1,5,15,'17:35:00','20:32:00','false',85 ,2 ),
(1074,1,1,5,15,'21:35:00','02:10:00','true',85 ,2 );

INSERT INTO voyages (id,type_id,societe_id,ville_depart,ville_arrive,depart_time,arrive_time,nextday,tarif,classe) VALUES
(1075,1,1,5,19,'21:35:00','09:32:00','true',183 ,2 );

INSERT INTO voyages (id,type_id,societe_id,ville_depart,ville_arrive,depart_time,arrive_time,nextday,tarif,classe) VALUES
(1076,2,2,5,19,'22:00:00','08:00:00','true',195 ,3 );


INSERT INTO voyages (id,type_id,societe_id,ville_depart,ville_arrive,depart_time,arrive_time,nextday,tarif,classe) VALUES
(1077,1,1,5,20,'10:40:00','21:00:00','false',210 ,2 ),
(1078,1,1,5,20,'21:35:00','08:10:00','true',210 ,2 );


INSERT INTO voyages (id,type_id,societe_id,ville_depart,ville_arrive,depart_time,arrive_time,nextday,tarif,classe) VALUES
(1079,2,2,5,20,'21:30:00','10:00:00','true',200 ,3 );



INSERT INTO voyages (id,type_id,societe_id,ville_depart,ville_arrive,depart_time,arrive_time,nextday,tarif,classe) VALUES
(1080,2,2,5,24,'08:15:00','09:00:00','false',15 ,3 ),
(1081,2,2,5,24,'12:15:00','13:30:00','false',20 ,3 ),
(1082,2,2,5,24,'16:45:00','17:30:00','false',20 ,3 ),
(1083,2,2,5,24,'21:15:00','22:15:00','false',20 ,3 );












































































